V,C,H,Count,Name
0.0, 0.0, 0.0, 38937, name1
0.3, 0.0, 0.0, 
0.2, 0.5, 0.0, 2056, name3
0.0, 0.8, 0.0,, 
0.4, 1.0, 0.0, 1363, name5
0.1, 0.3, 0.0, 1136, 
0.6, 1.3, 134.7, 1047, 
0.8, 2.0, 144.4, 694, 
0.4, 0.7, 0.0, 671, 
1.4, 3.4, 144.4, 658, 
0.3, 0.4, 0.0, 618, 
0.1, 0.9, 0.0, 576, 
0.5, 0.0, 0.0, 543, 
0.3, 0.8, 0.0, 493, 
1.0, 2.5, 144.4, 475, 
1.8, 4.4, 144.4, 418, 
0.6, 1.5, 144.4, 412, 
1.0, 2.1, 150.5, 385, 
1.2, 3.0, 144.4, 369, 
2.4, 6.0, 144.4, 362, 
0.1, 1.6, 290.2, 357, 
1.2, 2.8, 139.8, 339, 
1.6, 3.9, 144.4, 334, 
4.2, 10.6, 144.4, 324, 
0.5, 0.8, 0.0, 318, 
0.9, 1.3, 134.7, 314, 
2.0, 4.6, 147.3, 300, 
0.7, 0.7, 0.0, 298, 
0.2, 1.3, 314.7, 282, 
1.6, 3.4, 144.4, 278, 
2.0, 4.9, 144.4, 276, 
2.2, 5.4, 144.4, 273, 
0.1, 0.7, 0.0, 267, 
3.3, 8.4, 144.4, 266, 
5.9, 14.8, 144.4, 233, 
4.8, 12.2, 144.4, 224, 
2.8, 7.1, 144.4, 223, 
8.8, 22.1, 144.4, 220, 
2.6, 6.5, 144.4, 216, 
0.6, 0.8, 0.0, 211, 
3.6, 9.1, 144.4, 210, 
0.1, 1.6, 299.9, 209, 
1.6, 3.8, 141.0, 199, 
0.2, 0.8, 0.0, 197, 
2.7, 6.0, 144.4, 192, 
3.1, 7.6, 142.7, 191, 
0.2, 2.0, 298.0, 190, 
3.9, 9.8, 144.4, 190, 
5.2, 13.0, 144.4, 186, 
1.3, 2.1, 150.5, 176, 
6.7, 16.8, 144.4, 173, 
2.3, 4.6, 147.3, 162, 
7.9, 19.9, 144.4, 161, 
7.5, 18.8, 144.4, 160, 
4.0, 9.7, 143.1, 159, 
0.3, 0.8, 0.0, 153, 
5.5, 13.9, 144.4, 153, 
0.1, 2.0, 290.2, 150, 
1.5, 2.8, 139.8, 150, 
9.7, 24.1, 144.1, 149, 
7.1, 17.6, 143.7, 148, 
6.3, 15.8, 144.4, 148, 
6.4, 15.3, 144.4, 143, 
11.0, 26.9, 143.5, 141, 
0.3, 0.5, 0.0, 140, 
3.1, 7.7, 144.4, 135, 
1.9, 3.8, 141.0, 132, 
8.4, 21.0, 144.4, 131, 
8.4, 20.9, 143.8, 126, 
3.0, 6.1, 144.4, 125, 
2.2, 5.1, 147.0, 124, 
0.2, 2.1, 305.5, 120, 
3.6, 8.8, 145.9, 120, 
4.5, 11.3, 144.4, 119, 
10.2, 24.7, 144.5, 119, 
9.3, 23.1, 144.3, 117, 
4.6, 11.2, 143.3, 116, 
0.2, 1.1, 19.4, 116, 
2.4, 5.3, 149.3, 116, 
2.9, 6.8, 146.4, 115, 
7.1, 17.8, 144.4, 114, 
0.4, 0.7, 0.0, 111, 
1.0, 0.7, 0.0, 110, 
0.2, 1.2, 335.7, 108, 
5.2, 12.7, 145.5, 108, 
10.1, 25.1, 143.9, 108, 
1.8, 4.1, 147.6, 107, 
1.9, 3.4, 144.4, 107, 
0.8, 0.0, 0.0, 106, 
4.6, 10.9, 144.4, 106, 
3.5, 7.8, 142.8, 106, 
0.5, 0.9, 0.0, 105, 
7.6, 18.2, 143.7, 103, 
8.0, 19.6, 145.1, 102, 
5.0, 11.5, 143.3, 97, 
0.7, 1.2, 123.0, 96, 
0.5, 1.3, 314.7, 94, 
0.2, 0.5, 0.0, 92, 
13.1, 30.7, 142.0, 92, 
3.2, 6.9, 146.3, 91, 
11.4, 27.7, 143.3, 90, 
5.6, 13.1, 145.4, 89, 
0.9, 1.7, 129.1, 89, 
5.9, 14.2, 146.3, 89, 
15.2, 33.8, 140.2, 89, 
1.2, 1.3, 134.7, 88, 
2.2, 5.3, 142.0, 87, 
9.3, 22.9, 143.7, 86, 
2.6, 4.7, 147.2, 86, 
0.5, 0.8, 0.0, 84, 
0.3, 2.3, 318.8, 84, 
11.9, 28.5, 143.0, 84, 
12.7, 30.0, 142.4, 83, 
6.8, 15.8, 144.4, 82, 
0.6, 0.8, 0.0, 81, 
0.3, 1.8, 317.3, 80, 
5.0, 11.2, 144.4, 80, 
11.5, 27.1, 143.2, 79, 
0.4, 2.0, 298.0, 78, 
0.8, 0.8, 0.0, 77, 
4.0, 9.0, 145.9, 76, 
2.0, 4.3, 150.5, 75, 
0.1, 2.8, 290.2, 74, 
9.0, 21.4, 143.7, 74, 
5.6, 13.7, 143.5, 73, 
12.3, 29.0, 142.2, 73, 
0.3, 1.6, 280.4, 73, 
14.0, 31.9, 141.2, 73, 
7.2, 17.0, 145.2, 72, 
4.3, 9.9, 143.1, 72, 
1.2, 2.3, 155.7, 71, 
6.7, 16.4, 145.2, 71, 
3.8, 8.0, 142.8, 70, 
5.4, 11.9, 143.3, 70, 
1.5, 2.1, 150.5, 70, 
6.0, 14.2, 143.5, 70, 
0.6, 0.9, 0.0, 68, 
9.8, 23.4, 143.5, 68, 
2.7, 6.4, 142.4, 67, 
3.0, 6.8, 140.6, 67, 
5.6, 13.6, 145.4, 67, 
10.6, 26.0, 143.7, 67, 
0.9, 0.8, 0.0, 66, 
9.3, 22.6, 144.2, 66, 
10.6, 25.8, 143.2, 64, 
6.1, 13.5, 145.4, 64, 
6.8, 16.4, 142.9, 64, 
7.3, 16.3, 144.4, 61, 
3.3, 6.3, 144.4, 60, 
2.2, 3.4, 144.4, 59, 
8.5, 20.2, 145.1, 59, 
13.6, 31.3, 141.6, 59, 
7.7, 17.5, 145.2, 58, 
2.7, 5.4, 149.3, 57, 
0.3, 1.2, 277.2, 57, 
0.2, 2.4, 296.7, 56, 
2.5, 5.3, 142.0, 56, 
3.5, 7.1, 146.3, 56, 
12.3, 29.3, 142.7, 56, 
4.7, 10.2, 143.2, 55, 
0.3, 1.2, 359.5, 55, 
11.1, 25.4, 143.9, 55, 
7.3, 17.0, 142.9, 54, 
16.1, 35.0, 139.6, 54, 
10.7, 25.1, 144.2, 53, 
1.0, 1.6, 119.9, 52, 
13.6, 31.1, 141.2, 52, 
1.8, 2.8, 139.8, 51, 
9.8, 23.0, 144.0, 51, 
0.3, 1.7, 332.3, 50, 
0.3, 2.0, 282.3, 50, 
0.8, 1.2, 179.5, 50, 
14.8, 33.2, 140.5, 50, 
0.5, 2.1, 305.5, 49, 
1.8, 4.3, 141.4, 49, 
6.5, 14.0, 145.4, 49, 
6.3, 15.6, 143.6, 49, 
9.5, 21.9, 143.6, 48, 
1.2, 2.1, 125.5, 47, 
2.2, 3.8, 141.0, 46, 
8.2, 18.8, 143.7, 46, 
2.8, 5.4, 142.0, 45, 
3.8, 8.6, 139.9, 45, 
6.4, 14.6, 146.2, 45, 
3.5, 8.1, 141.2, 45, 
4.5, 11.0, 145.6, 45, 
7.6, 18.5, 143.0, 45, 
0.7, 2.0, 298.0, 44, 
0.5, 0.7, 0.0, 44, 
1.1, 0.0, 0.0, 44, 
4.4, 9.2, 145.9, 44, 
1.2, 2.0, 118.0, 43, 
4.2, 8.2, 142.9, 43, 
2.3, 5.0, 136.6, 42, 
5.4, 11.5, 144.4, 42, 
0.5, 1.3, 265.4, 42, 
3.3, 7.0, 140.7, 41, 
2.7, 6.2, 140.3, 41, 
4.3, 10.3, 141.9, 41, 
4.9, 11.5, 146.7, 41, 
11.9, 28.1, 143.4, 41, 
12.0, 27.3, 142.8, 41, 
12.8, 29.2, 141.8, 41, 
1.2, 0.7, 0.0, 40, 
1.5, 2.3, 155.7, 40, 
10.6, 25.3, 144.7, 40, 
0.3, 3.0, 306.5, 39, 
2.9, 4.7, 147.2, 39, 
8.1, 19.5, 142.4, 39, 
10.3, 23.8, 143.3, 39, 
0.2, 2.5, 303.0, 39, 
2.1, 4.6, 138.8, 39, 
9.7, 23.4, 145.2, 39, 
2.3, 4.3, 150.5, 38, 
6.5, 14.6, 143.6, 38, 
14.6, 31.5, 138.6, 38, 
14.4, 32.3, 140.4, 38, 
0.8, 0.8, 0.0, 38, 
4.2, 8.9, 140.0, 38, 
12.0, 28.1, 142.0, 38, 
0.6, 1.6, 280.4, 37, 
1.1, 1.2, 179.5, 37, 
9.4, 22.2, 143.0, 37, 
1.5, 3.2, 136.2, 37, 
13.2, 30.3, 142.4, 37, 
0.5, 1.2, 359.5, 36, 
0.5, 1.2, 39.5, 36, 
7.7, 18.4, 142.3, 36, 
1.1, 2.2, 132.5, 36, 
3.0, 5.5, 149.2, 36, 
6.4, 15.5, 142.8, 36, 
8.7, 19.3, 143.7, 36, 
9.3, 22.8, 144.8, 36, 
4.7, 10.5, 142.0, 35, 
12.5, 27.5, 142.4, 35, 
8.2, 19.3, 141.7, 35, 
8.9, 21.8, 143.1, 35, 
10.8, 24.1, 143.0, 35, 
14.9, 32.8, 139.7, 35, 
20.1, 40.7, 137.5, 35, 
0.4, 2.8, 319.8, 34, 
0.8, 1.8, 137.3, 34, 
6.8, 16.3, 142.0, 34, 
12.4, 28.3, 143.0, 34, 
9.0, 21.4, 141.9, 34, 
10.3, 24.3, 141.7, 34, 
11.1, 26.1, 142.9, 34, 
8.2, 18.1, 145.2, 33, 
11.1, 25.6, 144.4, 33, 
12.8, 29.3, 140.9, 33, 
6.9, 15.1, 146.2, 33, 
7.2, 17.5, 143.0, 33, 
9.0, 20.7, 144.9, 33, 
0.3, 2.2, 312.5, 32, 
1.4, 2.6, 129.1, 32, 
0.5, 2.4, 296.7, 32, 
0.8, 1.6, 280.4, 32, 
0.7, 0.9, 0.0, 32, 
1.1, 0.8, 0.0, 32, 
1.5, 1.3, 134.7, 32, 
2.5, 3.8, 141.0, 32, 
7.0, 15.1, 143.6, 32, 
15.7, 34.4, 139.9, 32, 
11.5, 27.5, 142.8, 31, 
13.3, 30.0, 140.5, 31, 
1.4, 2.1, 125.5, 31, 
8.9, 20.9, 145.6, 30, 
13.3, 29.2, 141.3, 30, 
3.9, 8.5, 138.3, 30, 
5.8, 12.3, 143.4, 30, 
8.4, 20.4, 145.7, 30, 
10.0, 22.3, 143.4, 30, 
16.5, 35.6, 139.3, 30, 
17.0, 35.8, 138.4, 30, 
4.8, 9.5, 145.8, 29, 
10.3, 24.5, 142.3, 29, 
0.4, 0.6, 0.0, 29, 
1.6, 3.0, 126.5, 29, 
1.8, 2.3, 155.7, 29, 
2.7, 5.6, 151.5, 29, 
7.6, 17.9, 146.6, 29, 
9.8, 23.7, 143.0, 29, 
11.2, 26.0, 141.4, 29, 
12.1, 27.3, 141.3, 29, 
13.3, 29.8, 140.0, 29, 
1.8, 2.1, 150.5, 28, 
1.8, 3.2, 136.2, 28, 
2.4, 5.8, 142.2, 28, 
6.0, 14.7, 143.6, 28, 
12.4, 28.2, 141.6, 28, 
0.3, 1.7, 19.4, 28, 
0.3, 1.4, 343.6, 28, 
0.7, 1.3, 314.7, 28, 
14.4, 32.6, 140.9, 28, 
8.5, 20.5, 142.5, 27, 
14.9, 32.5, 139.2, 27, 
15.7, 33.8, 139.8, 27, 
17.3, 36.6, 138.5, 27, 
5.1, 10.5, 143.2, 27, 
7.1, 17.1, 146.0, 27, 
9.4, 22.8, 143.1, 27, 
14.1, 31.1, 139.4, 27, 
16.9, 36.2, 139.1, 27, 
3.0, 6.7, 138.6, 26, 
5.3, 11.9, 146.6, 26, 
9.9, 23.5, 142.4, 26, 
0.7, 0.7, 0.0, 26, 
5.7, 12.3, 146.6, 26, 
8.6, 20.0, 142.4, 26, 
10.8, 23.7, 143.5, 26, 
0.3, 1.4, 19.4, 25, 
3.5, 8.0, 139.5, 25, 
5.7, 13.4, 141.5, 25, 
10.3, 23.4, 143.8, 25, 
11.6, 26.3, 142.6, 25, 
13.8, 30.2, 139.2, 25, 
13.6, 30.3, 141.9, 25, 
16.5, 35.4, 139.0, 25, 
5.0, 11.9, 142.2, 25, 
6.1, 14.2, 140.8, 25, 
13.7, 30.0, 140.1, 25, 
18.9, 39.1, 138.0, 25, 
0.2, 3.2, 295.1, 24, 
0.2, 2.8, 295.8, 24, 
3.9, 7.3, 146.2, 24, 
11.6, 27.1, 141.7, 24, 
3.4, 7.4, 149.7, 24, 
3.7, 6.4, 144.4, 24, 
3.9, 9.2, 147.3, 24, 
12.9, 27.6, 142.0, 24, 
14.1, 31.5, 140.3, 24, 
6.8, 15.3, 147.0, 23, 
9.5, 22.2, 141.2, 23, 
11.3, 25.1, 141.7, 23, 
11.7, 26.6, 140.6, 23, 
13.8, 29.8, 139.6, 23, 
14.5, 31.2, 140.3, 23, 
18.2, 37.4, 137.4, 23, 
0.3, 2.0, 324.4, 23, 
3.1, 7.1, 148.1, 23, 
4.2, 7.5, 146.2, 23, 
5.1, 10.9, 142.0, 23, 
5.8, 11.9, 144.4, 23, 
7.3, 17.2, 141.4, 23, 
10.7, 24.2, 144.7, 23, 
10.8, 24.8, 142.0, 23, 
14.1, 31.1, 140.7, 23, 
0.4, 3.7, 303.0, 22, 
0.6, 2.0, 282.3, 22, 
6.7, 16.6, 143.7, 22, 
12.9, 28.9, 139.8, 22, 
0.2, 3.6, 290.2, 22, 
0.5, 3.2, 295.1, 22, 
0.7, 1.5, 255.4, 22, 
3.1, 5.5, 142.1, 22, 
7.8, 16.9, 144.4, 22, 
11.6, 25.8, 144.1, 22, 
15.0, 32.0, 139.2, 22, 
1.3, 0.8, 0.0, 21, 
2.9, 7.0, 142.6, 21, 
4.1, 9.4, 140.3, 21, 
5.4, 12.6, 141.3, 21, 
8.1, 18.5, 146.6, 21, 
10.2, 23.8, 145.0, 21, 
11.9, 28.3, 142.5, 21, 
0.8, 0.8, 0.0, 21, 
0.9, 1.2, 219.5, 21, 
3.2, 4.8, 147.1, 21, 
3.6, 7.1, 140.8, 21, 
4.2, 9.9, 147.1, 21, 
6.3, 14.8, 147.1, 21, 
8.1, 19.6, 143.1, 21, 
10.2, 24.7, 142.8, 21, 
12.1, 26.5, 142.2, 21, 
12.8, 29.5, 141.4, 21, 
14.2, 30.6, 138.4, 21, 
15.4, 33.0, 138.6, 21, 
17.7, 37.3, 138.6, 21, 
18.1, 37.6, 138.7, 21, 
4.5, 9.1, 140.2, 20, 
4.3, 9.4, 147.2, 20, 
7.8, 17.4, 142.2, 20, 
8.3, 18.1, 143.0, 20, 
9.1, 20.5, 142.4, 20, 
9.5, 21.2, 144.8, 20, 
11.3, 24.4, 142.7, 20, 
14.5, 32.0, 140.8, 20, 
16.0, 32.7, 136.3, 20, 
15.7, 34.2, 139.5, 20, 
16.5, 35.0, 139.3, 20, 
0.4, 2.7, 314.7, 20, 
1.1, 0.8, 0.0, 20, 
1.7, 3.6, 137.3, 20, 
3.2, 7.4, 140.9, 20, 
3.7, 8.8, 141.5, 20, 
7.3, 16.8, 142.1, 20, 
11.0, 26.1, 144.5, 20, 
12.4, 28.8, 141.7, 20, 
12.3, 28.5, 143.5, 20, 
14.1, 30.4, 141.4, 20, 
15.0, 32.0, 138.0, 20, 
17.4, 36.1, 137.5, 20, 
0.3, 4.0, 294.1, 19, 
0.4, 2.1, 330.5, 19, 
3.4, 5.6, 149.1, 19, 
7.6, 18.7, 143.7, 19, 
8.7, 19.9, 141.8, 19, 
10.5, 22.6, 141.4, 19, 
12.6, 26.7, 141.8, 19, 
13.7, 30.6, 140.2, 19, 
0.4, 2.3, 335.7, 19, 
0.8, 1.2, 97.2, 19, 
0.8, 1.4, 163.7, 19, 
1.4, 2.8, 153.7, 19, 
5.4, 12.4, 140.2, 19, 
5.8, 12.9, 141.4, 19, 
7.8, 17.5, 143.0, 19, 
9.4, 21.4, 145.4, 19, 
11.3, 25.6, 140.2, 19, 
12.5, 28.4, 140.6, 19, 
13.4, 28.9, 139.4, 19, 
16.3, 33.9, 137.3, 19, 
1.4, 0.0, 0.0, 18, 
10.8, 24.6, 141.4, 18, 
13.3, 28.5, 142.1, 18, 
15.4, 32.8, 139.3, 18, 
17.9, 36.5, 137.0, 18, 
0.2, 4.4, 290.2, 18, 
2.2, 4.4, 132.5, 18, 
5.2, 12.4, 146.5, 18, 
7.0, 14.5, 145.3, 18, 
10.0, 23.0, 140.6, 18, 
10.6, 24.9, 145.3, 18, 
12.1, 26.8, 140.2, 18, 
12.9, 28.3, 141.1, 18, 
16.4, 33.2, 135.8, 18, 
20.5, 41.3, 137.3, 18, 
0.7, 2.4, 296.7, 17, 
1.1, 0.8, 0.0, 17, 
1.9, 4.0, 134.7, 17, 
3.8, 7.6, 149.6, 17, 
6.0, 13.3, 147.4, 17, 
10.4, 23.0, 142.6, 17, 
10.4, 22.7, 143.1, 17, 
10.8, 25.0, 141.0, 17, 
10.7, 25.4, 142.1, 17, 
12.0, 27.8, 141.4, 17, 
14.5, 31.9, 139.5, 17, 
15.4, 32.1, 138.8, 17, 
18.6, 38.3, 137.9, 17, 
0.8, 2.1, 305.5, 17, 
0.6, 0.8, 0.0, 17, 
4.1, 7.9, 149.4, 17, 
4.4, 10.0, 139.2, 17, 
9.1, 21.1, 140.6, 17, 
10.9, 24.4, 139.2, 17, 
13.2, 30.2, 141.0, 17, 
13.8, 29.3, 140.8, 17, 
14.5, 32.1, 140.0, 17, 
17.2, 34.5, 135.6, 17, 
17.1, 34.4, 138.7, 17, 
17.8, 36.6, 138.3, 17, 
18.4, 36.3, 135.2, 17, 
19.7, 40.2, 137.7, 17, 
1.4, 0.8, 0.0, 16, 
2.9, 5.1, 136.8, 16, 
3.4, 8.2, 142.9, 16, 
5.3, 11.2, 149.1, 16, 
8.7, 20.2, 141.2, 16, 
9.5, 21.9, 141.8, 16, 
11.0, 24.2, 138.6, 16, 
11.6, 25.6, 143.5, 16, 
11.8, 25.1, 140.8, 16, 
15.8, 33.1, 138.3, 16, 
16.3, 33.3, 138.4, 16, 
0.5, 2.2, 19.4, 16, 
0.7, 2.8, 319.8, 16, 
1.0, 1.6, 169.4, 16, 
1.4, 1.2, 179.5, 16, 
2.2, 4.5, 153.2, 16, 
2.6, 5.0, 136.7, 16, 
3.3, 5.8, 151.2, 16, 
5.2, 9.9, 145.8, 16, 
5.6, 12.9, 147.5, 16, 
6.7, 13.8, 141.6, 16, 
6.7, 13.2, 143.5, 16, 
10.0, 22.3, 141.6, 16, 
10.6, 25.6, 144.2, 16, 
11.1, 26.4, 142.5, 16, 
11.7, 25.3, 141.4, 16, 
11.5, 26.6, 144.7, 16, 
15.8, 33.2, 138.7, 16, 
16.2, 33.9, 139.5, 16, 
17.0, 35.1, 138.0, 16, 
16.9, 35.8, 139.4, 16, 
18.1, 37.9, 138.4, 16, 
20.9, 41.8, 137.2, 16, 
0.4, 1.9, 19.4, 15, 
3.0, 5.7, 151.3, 15, 
4.3, 10.4, 143.2, 15, 
5.0, 11.7, 141.1, 15, 
6.6, 15.0, 140.1, 15, 
9.9, 21.8, 145.2, 15, 
11.8, 25.9, 139.9, 15, 
12.2, 25.5, 141.0, 15, 
13.1, 28.0, 137.7, 15, 
12.8, 29.8, 141.9, 15, 
13.8, 29.8, 138.2, 15, 
14.7, 31.1, 137.7, 15, 
15.2, 31.0, 137.0, 15, 
15.8, 33.4, 137.9, 15, 
18.7, 37.4, 136.1, 15, 
0.2, 4.9, 290.2, 15, 
0.4, 1.9, 353.7, 15, 
0.8, 1.2, 39.5, 15, 
1.0, 2.0, 298.0, 15, 
0.6, 1.2, 155.7, 15, 
0.9, 1.6, 247.3, 15, 
0.9, 1.1, 199.4, 15, 
1.6, 3.0, 157.5, 15, 
2.0, 3.2, 136.2, 15, 
4.7, 9.7, 147.1, 15, 
8.8, 18.7, 143.0, 15, 
9.2, 20.4, 141.7, 15, 
9.9, 22.7, 142.8, 15, 
12.1, 25.8, 143.1, 15, 
14.9, 32.0, 140.4, 15, 
15.8, 32.9, 139.0, 15, 
16.2, 34.2, 139.2, 15, 
1.7, 2.1, 125.5, 14, 
3.6, 7.7, 136.0, 14, 
6.3, 12.7, 143.4, 14, 
6.3, 12.4, 144.4, 14, 
12.0, 26.8, 144.3, 14, 
12.6, 27.7, 139.0, 14, 
12.5, 27.4, 140.9, 14, 
14.8, 30.0, 136.3, 14, 
14.6, 30.4, 141.0, 14, 
15.3, 32.5, 140.9, 14, 
16.7, 33.2, 137.8, 14, 
17.2, 33.5, 138.0, 14, 
19.5, 38.9, 136.4, 14, 
95.0, 48.6, 104.5, 14, 
0.3, 3.3, 299.9, 14, 
0.2, 3.2, 290.2, 14, 
0.5, 2.1, 274.7, 14, 
1.5, 0.7, 0.0, 14, 
1.2, 2.6, 149.4, 14, 
4.6, 10.4, 148.2, 14, 
5.2, 10.6, 139.5, 14, 
7.9, 16.2, 146.0, 14, 
8.6, 19.0, 146.4, 14, 
8.7, 18.7, 145.1, 14, 
9.7, 23.8, 144.7, 14, 
12.8, 28.4, 142.6, 14, 
13.8, 30.0, 138.7, 14, 
13.6, 30.6, 142.4, 14, 
14.2, 29.9, 139.2, 14, 
15.0, 31.6, 138.3, 14, 
14.9, 32.4, 141.2, 14, 
15.6, 31.9, 136.1, 14, 
15.5, 32.2, 136.9, 14, 
16.2, 34.2, 138.1, 14, 
17.3, 36.8, 138.8, 14, 
18.5, 38.5, 138.2, 14, 
19.8, 39.9, 137.1, 14, 
97.7, 42.1, 109.1, 14, 
1.0, 0.7, 0.0, 13, 
1.1, 0.8, 0.0, 13, 
1.2, 1.2, 219.5, 13, 
1.7, 1.3, 134.7, 13, 
2.0, 2.3, 155.7, 13, 
4.4, 8.8, 150.4, 13, 
4.8, 10.6, 138.3, 13, 
5.1, 10.0, 147.0, 13, 
5.5, 11.2, 142.1, 13, 
5.6, 10.9, 143.2, 13, 
8.3, 17.4, 144.4, 13, 
8.9, 21.9, 143.8, 13, 
9.6, 21.9, 140.0, 13, 
11.1, 25.2, 144.9, 13, 
12.1, 26.0, 143.7, 13, 
14.2, 30.1, 139.6, 13, 
15.9, 33.1, 137.1, 13, 
20.8, 40.0, 135.1, 13, 
93.9, 58.1, 102.7, 13, 
0.7, 3.2, 316.2, 13, 
0.6, 3.7, 303.0, 13, 
1.0, 2.4, 296.7, 13, 
1.7, 0.8, 0.0, 13, 
2.6, 4.3, 150.5, 13, 
4.6, 11.0, 142.1, 13, 
5.2, 11.3, 137.5, 13, 
6.0, 11.6, 142.2, 13, 
8.3, 18.7, 140.9, 13, 
8.9, 21.4, 145.6, 13, 
9.8, 22.7, 146.4, 13, 
10.0, 21.6, 144.6, 13, 
15.2, 30.9, 135.3, 13, 
15.3, 33.4, 139.4, 13, 
16.3, 33.1, 138.0, 13, 
17.1, 35.1, 137.0, 13, 
94.3, 51.1, 103.9, 13, 
0.4, 2.5, 324.4, 12, 
0.8, 3.2, 295.1, 12, 
1.1, 1.6, 280.4, 12, 
1.5, 2.4, 116.7, 12, 
2.5, 4.5, 153.1, 12, 
4.0, 7.3, 140.9, 12, 
4.2, 9.1, 137.3, 12, 
4.8, 10.3, 139.4, 12, 
7.8, 18.1, 140.8, 12, 
9.0, 20.2, 146.9, 12, 
9.7, 21.2, 141.0, 12, 
11.3, 24.0, 143.2, 12, 
12.6, 27.0, 139.8, 12, 
14.2, 30.4, 138.0, 12, 
14.2, 29.4, 140.4, 12, 
14.7, 30.0, 138.8, 12, 
16.3, 33.0, 138.7, 12, 
16.6, 34.3, 138.9, 12, 
17.0, 35.6, 138.0, 12, 
18.0, 35.9, 135.7, 12, 
18.9, 36.5, 134.2, 12, 
25.6, 45.8, 133.5, 12, 
90.5, 33.8, 108.1, 12, 
94.9, 50.1, 104.4, 12, 
96.2, 49.9, 105.4, 12, 
97.9, 46.9, 108.5, 12, 
98.0, 42.1, 109.1, 12, 
0.6, 2.9, 279.0, 12, 
2.1, 2.8, 139.8, 12, 
2.8, 4.6, 153.0, 12, 
4.9, 10.9, 149.2, 12, 
5.3, 12.7, 142.4, 12, 
8.5, 19.7, 147.1, 12, 
9.2, 20.7, 141.1, 12, 
9.7, 21.7, 139.3, 12, 
9.6, 21.0, 142.2, 12, 
10.9, 23.3, 142.3, 12, 
11.5, 27.3, 142.2, 12, 
12.2, 26.8, 138.7, 12, 
13.5, 28.5, 136.9, 12, 
14.5, 30.6, 141.5, 12, 
15.7, 34.0, 140.2, 12, 
16.4, 32.8, 136.1, 12, 
16.9, 33.5, 134.9, 12, 
17.2, 34.1, 136.9, 12, 
94.6, 56.7, 103.2, 12, 
95.6, 48.6, 105.0, 12, 
1.8, 0.7, 0.0, 11, 
3.5, 5.6, 142.1, 11, 
4.1, 6.0, 148.8, 11, 
5.4, 9.1, 143.0, 11, 
6.2, 12.7, 146.5, 11, 
7.5, 15.7, 143.6, 11, 
9.2, 19.8, 143.6, 11, 
10.6, 22.6, 139.6, 11, 
11.7, 26.2, 139.5, 11, 
12.4, 25.0, 138.1, 11, 
13.5, 28.7, 137.4, 11, 
13.4, 28.4, 140.7, 11, 
13.4, 27.7, 141.5, 11, 
15.3, 33.2, 139.0, 11, 
15.4, 32.1, 140.0, 11, 
16.6, 34.7, 137.5, 11, 
17.3, 33.2, 136.2, 11, 
17.6, 35.0, 135.1, 11, 
17.4, 35.9, 138.1, 11, 
19.4, 39.1, 137.8, 11, 
19.9, 39.2, 135.8, 11, 
20.8, 39.4, 134.9, 11, 
93.3, 64.5, 101.7, 11, 
93.6, 61.3, 102.2, 11, 
93.9, 57.7, 102.7, 11, 
94.6, 49.3, 102.5, 11, 
95.1, 56.1, 104.5, 11, 
96.8, 42.2, 108.0, 11, 
0.3, 4.5, 297.3, 11, 
0.6, 2.1, 330.5, 11, 
0.9, 2.0, 282.3, 11, 
1.3, 1.9, 173.7, 11, 
1.8, 1.9, 173.7, 11, 
1.8, 3.2, 160.8, 11, 
2.1, 2.1, 150.5, 11, 
2.5, 3.5, 144.4, 11, 
4.6, 9.0, 138.6, 11, 
6.3, 13.2, 140.5, 11, 
6.5, 13.8, 147.3, 11, 
9.3, 22.1, 146.0, 11, 
10.2, 21.5, 140.8, 11, 
11.0, 22.9, 141.1, 11, 
11.3, 24.9, 141.1, 11, 
12.3, 25.3, 140.4, 11, 
13.1, 27.8, 138.6, 11, 
14.0, 28.1, 137.8, 11, 
15.9, 32.9, 136.7, 11, 
16.7, 33.4, 138.2, 11, 
17.3, 34.2, 134.8, 11, 
17.7, 34.5, 133.9, 11, 
18.0, 35.7, 136.3, 11, 
19.2, 37.6, 135.1, 11, 
95.8, 40.8, 105.3, 11, 
95.7, 56.1, 105.0, 11, 
96.6, 43.2, 106.8, 11, 
0.6, 3.8, 321.0, 10, 
0.5, 3.9, 311.0, 10, 
0.3, 1.4, 3.2, 10, 
1.1, 1.2, 359.5, 10, 
1.1, 1.6, 100.4, 10, 
1.7, 1.2, 179.5, 10, 
2.3, 3.2, 136.2, 10, 
3.6, 6.0, 151.0, 10, 
4.6, 8.4, 142.9, 10, 
5.6, 10.2, 145.7, 10, 
5.8, 13.2, 139.5, 10, 
5.8, 12.8, 140.4, 10, 
6.2, 13.4, 141.5, 10, 
7.5, 16.7, 139.0, 10, 
7.4, 15.6, 146.1, 10, 
9.7, 20.8, 141.6, 10, 
10.5, 23.4, 140.4, 10, 
11.1, 26.6, 143.0, 10, 
12.7, 26.2, 139.1, 10, 
15.0, 29.6, 133.8, 10, 
14.7, 30.7, 138.1, 10, 
15.7, 30.2, 135.7, 10, 
16.1, 34.1, 139.9, 10, 
16.8, 33.7, 135.3, 10, 
18.5, 35.5, 134.5, 10, 
18.3, 36.7, 137.1, 10, 
18.2, 36.7, 138.1, 10, 
18.6, 38.0, 137.3, 10, 
20.9, 39.2, 133.4, 10, 
84.8, 39.2, 109.2, 10, 
93.2, 50.8, 102.4, 10, 
93.3, 62.7, 101.8, 10, 
94.2, 56.7, 103.2, 10, 
94.4, 49.2, 103.5, 10, 
94.7, 51.1, 103.9, 10, 
94.8, 47.2, 104.0, 10, 
94.8, 54.8, 104.2, 10, 
95.0, 49.6, 104.4, 10, 
95.3, 47.6, 105.0, 10, 
95.7, 42.8, 105.8, 10, 
97.5, 45.0, 106.7, 10, 
97.5, 45.0, 109.2, 10, 
97.9, 33.8, 110.8, 10, 
97.8, 43.1, 110.0, 10, 
98.3, 30.3, 112.2, 10, 
0.2, 4.0, 290.2, 10, 
0.4, 0.9, 0.0, 10, 
0.6, 3.7, 281.5, 10, 
1.4, 1.2, 219.5, 10, 
1.5, 2.0, 187.7, 10, 
1.5, 2.3, 167.7, 10, 
2.7, 5.3, 154.4, 10, 
3.2, 6.5, 152.5, 10, 
3.7, 5.8, 148.9, 10, 
4.9, 9.4, 140.3, 10, 
4.9, 11.8, 145.5, 10, 
5.6, 12.3, 149.7, 10, 
6.4, 14.5, 148.0, 10, 
7.0, 15.5, 140.2, 10, 
7.2, 16.5, 147.6, 10, 
9.7, 20.3, 143.4, 10, 
11.1, 22.9, 139.3, 10, 
12.5, 26.2, 143.2, 10, 
13.0, 27.5, 140.5, 10, 
13.9, 27.7, 139.6, 10, 
13.8, 28.5, 140.2, 10, 
14.5, 28.8, 136.2, 10, 
14.3, 29.9, 137.9, 10, 
15.9, 32.1, 137.4, 10, 
16.1, 34.6, 138.8, 10, 
18.3, 36.9, 136.5, 10, 
19.0, 34.9, 135.1, 10, 
19.0, 38.4, 137.7, 10, 
86.8, 33.0, 106.7, 10, 
87.2, 35.5, 109.1, 10, 
87.7, 36.0, 107.2, 10, 
89.8, 58.4, 104.1, 10, 
93.4, 54.5, 102.4, 10, 
93.7, 52.1, 102.9, 10, 
93.9, 61.8, 102.2, 10, 
97.4, 43.6, 108.4, 10, 
97.2, 52.7, 108.7, 10, 
0.2, 3.6, 294.5, 9, 
0.4, 1.9, 338.6, 9, 
0.4, 3.2, 290.2, 9, 
0.9, 3.0, 306.5, 9, 
1.0, 2.1, 305.5, 9, 
1.1, 2.0, 282.3, 9, 
1.4, 3.3, 140.5, 9, 
2.3, 2.8, 139.8, 9, 
2.5, 4.8, 130.7, 9, 
2.8, 3.5, 144.4, 9, 
2.9, 5.8, 133.2, 9, 
3.5, 5.0, 147.1, 9, 
5.3, 9.7, 140.4, 9, 
10.1, 22.8, 139.9, 9, 
9.8, 23.9, 143.6, 9, 
10.3, 23.1, 146.1, 9, 
10.5, 22.0, 144.3, 9, 
11.4, 24.7, 138.9, 9, 
12.7, 25.4, 139.9, 9, 
13.2, 29.0, 143.1, 9, 
14.4, 28.2, 137.5, 9, 
14.8, 30.4, 135.9, 9, 
15.1, 31.8, 137.5, 9, 
15.0, 30.7, 141.1, 9, 
16.8, 34.0, 136.0, 9, 
17.3, 34.0, 134.4, 9, 
17.1, 35.0, 136.6, 9, 
17.6, 34.6, 135.4, 9, 
17.5, 35.6, 136.5, 9, 
17.4, 35.9, 139.2, 9, 
17.4, 36.2, 137.8, 9, 
18.6, 34.8, 134.1, 9, 
18.3, 36.0, 138.8, 9, 
19.4, 35.7, 134.3, 9, 
27.3, 47.0, 132.3, 9, 
28.3, 49.0, 133.4, 9, 
85.6, 35.1, 107.8, 9, 
86.4, 30.0, 108.4, 9, 
87.5, 11.0, 113.1, 9, 
88.7, 44.3, 105.4, 9, 
89.4, 37.8, 107.0, 9, 
89.8, 50.5, 103.7, 9, 
90.7, 54.2, 104.0, 9, 
93.4, 60.1, 101.8, 9, 
93.3, 57.7, 102.7, 9, 
94.5, 54.4, 102.4, 9, 
94.0, 55.3, 104.9, 9, 
94.5, 52.4, 104.7, 9, 
95.3, 36.9, 104.9, 9, 
94.9, 57.5, 105.3, 9, 
95.8, 45.7, 104.6, 9, 
95.9, 48.5, 105.0, 9, 
97.0, 44.6, 108.3, 9, 
97.5, 46.0, 109.1, 9, 
97.8, 40.6, 108.7, 9, 
98.0, 33.7, 109.5, 9, 
97.8, 44.1, 109.9, 9, 
98.2, 45.9, 106.7, 9, 
0.3, 5.8, 290.2, 9, 
0.7, 3.5, 5.9, 9, 
0.6, 6.0, 292.8, 9, 
0.3, 2.4, 283.6, 9, 
0.5, 1.4, 35.7, 9, 
0.7, 3.2, 290.2, 9, 
0.5, 1.7, 271.1, 9, 
0.7, 1.4, 55.7, 9, 
0.8, 1.2, 359.5, 9, 
1.1, 1.8, 240.9, 9, 
1.1, 1.4, 183.3, 9, 
1.4, 0.8, 0.0, 9, 
3.3, 7.2, 137.2, 9, 
3.7, 8.1, 149.3, 9, 
4.6, 9.3, 137.5, 9, 
6.7, 12.8, 144.4, 9, 
6.7, 15.8, 146.9, 9, 
7.3, 15.8, 146.9, 9, 
8.0, 16.2, 143.6, 9, 
8.8, 18.0, 144.3, 9, 
10.5, 23.5, 139.3, 9, 
10.9, 23.0, 142.8, 9, 
11.4, 25.2, 139.1, 9, 
11.9, 24.9, 138.5, 9, 
12.1, 27.2, 139.8, 9, 
13.2, 25.5, 139.5, 9, 
13.1, 27.1, 139.4, 9, 
13.5, 28.9, 138.0, 9, 
13.4, 29.3, 139.0, 9, 
14.9, 29.1, 136.5, 9, 
14.7, 30.9, 137.3, 9, 
14.6, 31.3, 138.2, 9, 
16.5, 32.5, 134.1, 9, 
16.5, 32.9, 135.0, 9, 
17.4, 33.5, 133.0, 9, 
17.1, 34.8, 137.3, 9, 
17.0, 35.1, 139.0, 9, 
18.1, 35.4, 134.6, 9, 
17.9, 35.3, 137.6, 9, 
19.0, 35.6, 134.4, 9, 
19.3, 36.6, 135.1, 9, 
19.0, 38.7, 137.4, 9, 
19.4, 37.9, 138.5, 9, 
20.1, 37.8, 135.0, 9, 
20.3, 40.2, 136.4, 9, 
21.2, 40.2, 134.2, 9, 
22.0, 41.6, 134.7, 9, 
29.7, 49.2, 131.5, 9, 
82.2, 31.3, 107.4, 9, 
87.4, 34.0, 108.0, 9, 
87.2, 34.5, 109.2, 9, 
87.8, 32.9, 107.4, 9, 
89.0, 56.2, 103.0, 9, 
89.5, 47.7, 103.8, 9, 
89.4, 34.8, 107.9, 9, 
90.8, 42.8, 103.4, 9, 
90.8, 52.3, 103.7, 9, 
91.6, 37.8, 103.5, 9, 
92.2, 42.6, 103.5, 9, 
92.2, 51.3, 103.8, 9, 
92.0, 52.7, 104.6, 9, 
93.7, 58.2, 101.9, 9, 
94.0, 63.0, 103.3, 9, 
94.3, 61.6, 103.8, 9, 
94.3, 56.2, 104.9, 9, 
96.1, 44.7, 104.7, 9, 
96.1, 41.8, 105.8, 9, 
95.8, 44.2, 106.7, 9, 
96.4, 48.9, 106.4, 9, 
97.2, 41.7, 108.0, 9, 
97.1, 42.1, 108.0, 9, 
97.7, 42.6, 109.0, 9, 
98.1, 33.8, 112.1, 9, 
0.4, 3.2, 316.2, 8, 
0.7, 6.0, 295.5, 8, 
0.7, 2.2, 29.7, 8, 
0.6, 1.7, 19.4, 8, 
0.7, 1.9, 353.7, 8, 
1.2, 1.6, 247.3, 8, 
1.9, 3.3, 124.6, 8, 
2.7, 3.8, 141.1, 8, 
2.9, 4.4, 150.4, 8, 
3.7, 7.0, 138.8, 8, 
4.0, 6.6, 144.4, 8, 
4.5, 8.1, 149.3, 8, 
4.6, 7.8, 146.1, 8, 
7.0, 14.3, 147.2, 8, 
6.8, 15.0, 147.9, 8, 
7.5, 15.0, 145.3, 8, 
7.8, 16.4, 146.8, 8, 
8.2, 19.2, 141.0, 8, 
9.0, 19.3, 136.9, 8, 
9.2, 19.2, 144.9, 8, 
9.3, 19.1, 142.9, 8, 
10.5, 23.7, 139.9, 8, 
11.9, 24.7, 137.9, 8, 
12.6, 25.9, 142.7, 8, 
13.5, 26.9, 140.9, 8, 
13.9, 29.4, 137.2, 8, 
14.4, 28.9, 136.8, 8, 
14.2, 30.9, 138.9, 8, 
15.3, 30.7, 134.8, 8, 
15.1, 31.4, 136.7, 8, 
15.5, 32.0, 137.7, 8, 
15.5, 31.7, 138.0, 8, 
15.5, 31.3, 139.6, 8, 
16.0, 32.4, 135.5, 8, 
16.4, 33.0, 135.4, 8, 
16.4, 32.3, 137.2, 8, 
17.7, 33.9, 135.0, 8, 
18.5, 35.9, 134.2, 8, 
18.4, 36.5, 135.6, 8, 
18.8, 36.8, 134.8, 8, 
18.8, 37.1, 135.5, 8, 
19.3, 36.0, 136.1, 8, 
19.3, 35.3, 136.7, 8, 
19.4, 35.0, 135.0, 8, 
19.8, 37.4, 133.4, 8, 
19.7, 37.7, 134.1, 8, 
20.4, 38.4, 136.1, 8, 
20.6, 40.8, 137.4, 8, 
21.4, 42.2, 136.8, 8, 
22.2, 43.3, 136.6, 8, 
22.9, 42.1, 133.4, 8, 
79.3, 33.6, 106.4, 8, 
82.4, 37.4, 106.9, 8, 
82.8, 48.2, 103.4, 8, 
85.3, 35.2, 103.9, 8, 
84.8, 36.2, 107.7, 8, 
85.2, 36.2, 107.1, 8, 
85.4, 32.1, 107.4, 8, 
85.7, 29.5, 108.4, 8, 
87.1, 46.4, 103.7, 8, 
87.1, 38.5, 108.1, 8, 
87.7, 50.7, 103.6, 8, 
88.0, 29.4, 106.9, 8, 
87.9, 32.9, 106.7, 8, 
88.0, 36.9, 107.1, 8, 
88.7, 50.1, 104.1, 8, 
89.7, 37.9, 104.6, 8, 
90.5, 35.8, 107.9, 8, 
91.1, 48.0, 104.8, 8, 
91.8, 50.9, 102.4, 8, 
91.3, 50.8, 105.1, 8, 
92.4, 58.2, 103.5, 8, 
92.8, 41.6, 104.1, 8, 
92.8, 33.1, 106.8, 8, 
93.2, 49.4, 102.5, 8, 
92.9, 50.2, 104.3, 8, 
92.8, 53.5, 104.1, 8, 
93.4, 53.6, 102.8, 8, 
93.9, 57.3, 101.5, 8, 
93.6, 50.2, 104.3, 8, 
94.1, 41.1, 102.5, 8, 
94.0, 62.7, 101.8, 8, 
94.0, 56.8, 102.8, 8, 
94.1, 61.2, 103.0, 8, 
94.2, 59.4, 103.1, 8, 
94.6, 55.4, 101.6, 8, 
94.3, 50.1, 104.4, 8, 
94.1, 54.8, 104.1, 8, 
94.3, 49.6, 104.4, 8, 
94.8, 38.5, 103.6, 8, 
94.5, 58.0, 103.6, 8, 
94.4, 59.4, 103.5, 8, 
94.7, 53.5, 102.9, 8, 
94.7, 50.1, 103.9, 8, 
94.6, 47.7, 105.0, 8, 
94.6, 46.7, 105.0, 8, 
94.8, 40.9, 105.3, 8, 
94.7, 55.2, 105.0, 8, 
94.8, 53.8, 104.2, 8, 
95.2, 58.4, 103.6, 8, 
95.2, 51.4, 104.8, 8, 
95.3, 48.6, 104.9, 8, 
95.3, 46.7, 105.0, 8, 
95.5, 39.9, 105.4, 8, 
95.5, 53.3, 104.3, 8, 
95.7, 48.6, 104.5, 8, 
95.5, 50.0, 105.3, 8, 
95.4, 51.4, 105.3, 8, 
96.7, 36.8, 104.9, 8, 
96.3, 50.8, 106.7, 8, 
96.6, 46.1, 106.1, 8, 
97.0, 36.8, 108.5, 8, 
97.1, 40.7, 108.7, 8, 
97.9, 35.2, 107.5, 8, 
97.4, 38.7, 109.5, 8, 
97.7, 43.6, 108.4, 8, 
97.5, 40.2, 111.0, 8, 
97.7, 35.3, 111.8, 8, 
97.9, 33.3, 110.9, 8, 
98.2, 32.3, 111.8, 8, 
0.4, 5.4, 296.1, 8, 
1.4, 1.6, 280.4, 8, 
1.8, 2.4, 219.5, 8, 
1.6, 3.3, 152.3, 8, 
2.1, 3.7, 123.0, 8, 
1.9, 3.0, 166.8, 8, 
1.8, 3.5, 155.7, 8, 
2.3, 3.5, 171.6, 8, 
2.6, 5.4, 134.8, 8, 
3.0, 3.9, 141.1, 8, 
3.2, 5.9, 133.4, 8, 
4.8, 9.1, 150.2, 8, 
5.0, 8.7, 143.0, 8, 
6.0, 13.2, 149.4, 8, 
6.0, 13.8, 147.3, 8, 
6.5, 13.2, 149.4, 8, 
6.3, 15.1, 146.2, 8, 
7.3, 15.3, 135.9, 8, 
7.0, 15.9, 139.5, 8, 
8.3, 19.0, 140.3, 8, 
8.4, 20.7, 145.1, 8, 
9.6, 22.0, 140.6, 8, 
9.4, 21.4, 147.2, 8, 
10.2, 24.4, 145.0, 8, 
12.3, 26.4, 137.5, 8, 
12.6, 27.5, 138.5, 8, 
12.4, 27.0, 143.8, 8, 
12.3, 28.9, 143.1, 8, 
13.2, 27.4, 136.0, 8, 
12.8, 28.9, 143.6, 8, 
13.0, 26.8, 141.3, 8, 
13.2, 28.8, 144.0, 8, 
13.9, 27.8, 141.1, 8, 
14.3, 29.1, 138.6, 8, 
14.7, 30.2, 139.3, 8, 
14.7, 29.5, 140.1, 8, 
14.4, 32.2, 141.2, 8, 
15.0, 31.2, 139.9, 8, 
15.9, 32.1, 138.6, 8, 
16.5, 32.1, 135.6, 8, 
17.5, 35.4, 136.1, 8, 
18.0, 35.0, 136.0, 8, 
17.8, 37.0, 138.0, 8, 
18.2, 37.6, 137.8, 8, 
19.1, 38.1, 136.2, 8, 
20.1, 37.8, 134.0, 8, 
20.1, 38.5, 134.4, 8, 
20.0, 38.0, 135.5, 8, 
21.2, 40.5, 134.8, 8, 
22.5, 44.0, 136.8, 8, 
25.9, 46.7, 134.1, 8, 
26.9, 46.4, 131.9, 8, 
79.8, 29.4, 106.7, 8, 
80.2, 26.3, 107.8, 8, 
81.0, 58.6, 102.0, 8, 
81.8, 62.7, 104.2, 8, 
82.4, 29.8, 109.8, 8, 
84.4, 28.1, 107.7, 8, 
85.3, 27.5, 110.3, 8, 
85.6, 37.1, 107.0, 8, 
85.9, 35.1, 107.8, 8, 
86.7, 41.5, 105.0, 8, 
87.1, 32.0, 107.5, 8, 
87.2, 31.0, 107.6, 8, 
87.5, 40.5, 105.0, 8, 
87.3, 36.0, 107.8, 8, 
88.3, 19.7, 108.5, 8, 
88.5, 19.7, 106.3, 8, 
89.0, 19.6, 108.5, 8, 
88.1, 37.9, 109.4, 8, 
88.6, 31.9, 107.5, 8, 
88.5, 32.9, 107.4, 8, 
89.2, 7.4, 120.9, 8, 
90.8, 51.4, 103.7, 8, 
91.9, 10.8, 107.4, 8, 
91.9, 29.8, 103.3, 8, 
91.7, 54.1, 104.1, 8, 
92.6, 65.8, 101.3, 8, 
92.7, 61.0, 101.4, 8, 
93.2, 42.5, 104.1, 8, 
93.5, 64.0, 102.5, 8, 
93.6, 62.7, 101.8, 8, 
93.6, 58.2, 102.7, 8, 
93.7, 60.0, 101.9, 8, 
93.4, 53.5, 104.6, 8, 
93.8, 59.5, 103.1, 8, 
93.9, 48.7, 104.4, 8, 
94.3, 57.7, 102.8, 8, 
94.4, 59.1, 101.9, 8, 
94.1, 53.4, 104.6, 8, 
94.4, 53.0, 102.9, 8, 
94.4, 53.5, 102.9, 8, 
94.5, 60.3, 103.1, 8, 
94.6, 55.8, 103.3, 8, 
94.6, 54.8, 103.3, 8, 
94.5, 53.9, 104.2, 8, 
95.0, 42.4, 103.6, 8, 
94.9, 47.7, 105.0, 8, 
95.0, 56.1, 104.9, 8, 
95.3, 56.6, 103.3, 8, 
95.2, 51.9, 106.6, 8, 
95.6, 58.8, 104.8, 8, 
95.7, 49.0, 106.4, 8, 
95.8, 50.4, 105.3, 8, 
96.9, 50.3, 107.2, 8, 
97.1, 51.2, 107.6, 8, 
97.3, 44.5, 108.3, 8, 
97.1, 46.0, 109.1, 8, 
97.3, 45.5, 108.2, 8, 
97.3, 42.2, 109.6, 8, 
97.4, 47.9, 109.3, 8, 
97.5, 47.4, 108.4, 8, 
97.8, 51.2, 107.6, 8, 
97.9, 42.1, 109.6, 8, 
98.3, 32.3, 111.1, 8, 
0.5, 2.5, 19.4, 7, 
0.4, 4.5, 300.7, 7, 
0.6, 4.5, 297.2, 7, 
0.7, 5.5, 296.0, 7, 
0.5, 4.0, 290.2, 7, 
0.9, 3.7, 303.0, 7, 
1.5, 1.9, 173.7, 7, 
2.1, 3.2, 160.8, 7, 
5.7, 10.9, 139.7, 7, 
6.7, 14.7, 138.3, 7, 
8.6, 17.2, 138.3, 7, 
9.1, 19.5, 146.3, 7, 
10.6, 21.9, 140.6, 7, 
10.9, 24.6, 139.8, 7, 
11.8, 25.8, 138.3, 7, 
12.7, 26.9, 138.3, 7, 
13.5, 27.2, 139.0, 7, 
13.7, 27.5, 135.6, 7, 
13.5, 27.9, 138.2, 7, 
14.0, 29.0, 136.2, 7, 
13.9, 29.0, 139.0, 7, 
14.6, 28.1, 134.5, 7, 
14.1, 29.9, 142.7, 7, 
14.1, 30.6, 141.9, 7, 
14.3, 28.6, 139.9, 7, 
14.0, 31.7, 140.8, 7, 
15.1, 30.3, 139.0, 7, 
15.6, 31.0, 137.5, 7, 
15.5, 32.4, 137.3, 7, 
16.4, 33.0, 136.5, 7, 
16.7, 34.3, 136.8, 7, 
16.6, 35.0, 138.2, 7, 
17.4, 35.2, 138.8, 7, 
18.4, 35.8, 136.2, 7, 
19.0, 36.2, 133.4, 7, 
19.6, 38.0, 134.7, 7, 
19.4, 39.2, 137.0, 7, 
19.8, 39.7, 136.8, 7, 
20.5, 37.8, 135.8, 7, 
20.5, 38.6, 134.3, 7, 
20.8, 39.8, 134.6, 7, 
21.4, 42.0, 136.4, 7, 
22.0, 39.7, 135.9, 7, 
22.3, 41.4, 136.9, 7, 
23.5, 43.9, 134.8, 7, 
26.4, 46.8, 133.6, 7, 
29.2, 49.2, 132.2, 7, 
77.7, 52.4, 103.0, 7, 
79.2, 27.9, 110.1, 7, 
79.3, 30.5, 108.1, 7, 
79.5, 33.0, 108.6, 7, 
80.6, 64.1, 100.9, 7, 
81.0, 57.2, 103.8, 7, 
81.4, 66.8, 102.0, 7, 
82.4, 66.0, 104.4, 7, 
83.8, 29.2, 106.8, 7, 
84.2, 32.8, 104.5, 7, 
84.9, 30.6, 106.0, 7, 
84.7, 52.3, 104.3, 7, 
85.0, 33.7, 106.6, 7, 
85.5, 47.5, 104.6, 7, 
86.0, 44.6, 104.3, 7, 
86.9, 36.0, 107.8, 7, 
87.2, 54.0, 103.8, 7, 
87.4, 44.4, 104.3, 7, 
87.3, 33.5, 108.7, 7, 
87.5, 33.0, 107.4, 7, 
87.8, 47.8, 103.7, 7, 
88.3, 17.6, 109.9, 7, 
88.4, 22.3, 105.3, 7, 
88.5, 28.5, 102.3, 7, 
88.2, 55.0, 102.1, 7, 
88.3, 37.5, 104.6, 7, 
88.0, 49.2, 104.1, 7, 
88.6, 33.4, 106.7, 7, 
88.9, 37.9, 105.8, 7, 
89.2, 19.1, 110.9, 7, 
89.2, 32.9, 104.7, 7, 
89.4, 23.2, 111.1, 7, 
89.3, 24.3, 110.9, 7, 
89.3, 29.3, 108.5, 7, 
90.1, 19.6, 108.6, 7, 
90.4, 19.6, 104.1, 7, 
89.8, 31.3, 106.2, 7, 
90.3, 7.9, 120.2, 7, 
89.6, 52.9, 104.5, 7, 
89.6, 53.8, 104.4, 7, 
89.9, 46.7, 103.8, 7, 
89.9, 46.2, 103.8, 7, 
90.4, 43.8, 103.4, 7, 
90.6, 29.2, 106.3, 7, 
91.1, 30.7, 107.7, 7, 
91.0, 31.7, 107.6, 7, 
91.7, 5.6, 132.3, 7, 
91.0, 65.0, 102.3, 7, 
91.8, 27.2, 105.5, 7, 
91.6, 64.6, 101.2, 7, 
91.4, 60.5, 102.9, 7, 
92.0, 32.2, 104.8, 7, 
91.7, 46.5, 105.9, 7, 
92.2, 46.1, 102.9, 7, 
92.8, 18.0, 105.1, 7, 
92.4, 53.7, 102.4, 7, 
92.6, 36.2, 104.8, 7, 
92.1, 58.6, 105.1, 7, 
92.7, 58.3, 101.8, 7, 
92.9, 35.1, 105.4, 7, 
92.9, 36.1, 105.4, 7, 
92.5, 56.3, 104.8, 7, 
93.2, 60.6, 100.6, 7, 
93.1, 61.0, 101.4, 7, 
93.0, 55.5, 102.3, 7, 
93.5, 49.5, 100.6, 7, 
93.0, 39.1, 105.9, 7, 
93.2, 67.0, 101.6, 7, 
93.1, 58.6, 103.5, 7, 
93.2, 59.0, 104.7, 7, 
93.5, 60.4, 103.0, 7, 
93.6, 49.7, 104.4, 7, 
93.9, 50.7, 102.5, 7, 
93.6, 54.9, 103.2, 7, 
93.5, 53.5, 104.2, 7, 
93.9, 44.4, 103.6, 7, 
93.8, 64.8, 102.5, 7, 
94.1, 59.1, 101.9, 7, 
94.0, 50.2, 103.9, 7, 
93.7, 53.4, 104.6, 7, 
93.9, 47.8, 104.9, 7, 
94.3, 61.7, 102.2, 7, 
94.2, 53.9, 104.2, 7, 
94.2, 69.4, 103.0, 7, 
94.5, 58.5, 103.6, 7, 
94.6, 57.6, 102.8, 7, 
94.6, 52.0, 103.8, 7, 
94.9, 41.4, 104.2, 7, 
94.5, 60.7, 104.6, 7, 
94.9, 59.4, 103.1, 7, 
94.6, 56.1, 104.9, 7, 
94.9, 53.4, 104.2, 7, 
95.3, 49.7, 102.6, 7, 
94.7, 49.1, 106.3, 7, 
95.3, 44.3, 103.6, 7, 
95.5, 31.0, 104.9, 7, 
95.0, 57.0, 104.5, 7, 
95.1, 53.3, 104.7, 7, 
95.5, 50.5, 105.3, 7, 
95.7, 41.8, 105.8, 7, 
95.7, 43.7, 105.7, 7, 
96.1, 35.9, 104.9, 7, 
95.8, 59.3, 103.6, 7, 
96.0, 47.6, 105.0, 7, 
96.0, 46.6, 105.1, 7, 
96.0, 41.3, 106.4, 7, 
96.1, 54.2, 105.1, 7, 
96.2, 50.4, 105.3, 7, 
96.2, 44.2, 106.7, 7, 
96.3, 53.7, 105.6, 7, 
96.4, 47.0, 107.0, 7, 
96.4, 46.5, 107.1, 7, 
96.6, 45.1, 106.2, 7, 
96.5, 50.3, 107.2, 7, 
96.7, 48.9, 106.4, 7, 
96.9, 43.1, 106.8, 7, 
96.9, 45.1, 106.7, 7, 
97.2, 47.4, 108.4, 7, 
97.1, 48.4, 108.3, 7, 
97.5, 42.1, 108.0, 7, 
97.3, 42.1, 109.1, 7, 
97.7, 29.8, 110.8, 7, 
97.6, 45.5, 108.2, 7, 
97.7, 40.2, 109.9, 7, 
97.8, 61.8, 105.4, 7, 
97.7, 48.9, 109.2, 7, 
0.5, 6.9, 294.8, 7, 
0.3, 4.1, 298.0, 7, 
1.0, 3.3, 295.1, 7, 
0.9, 1.9, 255.4, 7, 
1.4, 0.8, 0.0, 7, 
1.4, 2.5, 123.0, 7, 
1.7, 2.4, 116.7, 7, 
2.0, 1.3, 134.7, 7, 
3.3, 6.8, 138.7, 7, 
3.1, 6.8, 150.2, 7, 
3.1, 7.4, 146.2, 7, 
3.4, 6.8, 154.0, 7, 
3.4, 7.8, 147.8, 7, 
3.9, 9.5, 145.8, 7, 
4.3, 9.3, 150.1, 7, 
6.3, 13.9, 138.8, 7, 
6.8, 15.5, 147.8, 7, 
7.6, 16.9, 149.1, 7, 
8.0, 15.6, 145.3, 7, 
8.0, 18.3, 148.0, 7, 
8.5, 19.1, 148.5, 7, 
8.9, 20.8, 146.8, 7, 
9.7, 19.6, 144.7, 7, 
10.1, 22.3, 139.8, 7, 
11.9, 23.8, 141.6, 7, 
12.0, 23.4, 140.3, 7, 
13.3, 25.8, 135.8, 7, 
13.0, 28.2, 138.2, 7, 
13.1, 27.0, 137.9, 7, 
13.7, 29.0, 142.6, 7, 
14.5, 29.1, 134.4, 7, 
15.1, 30.8, 137.8, 7, 
15.2, 30.1, 137.3, 7, 
16.2, 31.1, 134.8, 7, 
16.0, 31.8, 137.8, 7, 
16.1, 33.9, 140.7, 7, 
16.6, 35.2, 138.6, 7, 
16.5, 34.9, 140.0, 7, 
17.3, 33.1, 135.8, 7, 
17.3, 33.8, 135.1, 7, 
17.4, 33.1, 134.6, 7, 
17.1, 34.8, 136.3, 7, 
17.7, 34.8, 134.7, 7, 
18.2, 34.0, 134.8, 7, 
18.2, 37.3, 137.1, 7, 
18.7, 36.1, 137.7, 7, 
19.7, 36.8, 135.3, 7, 
19.5, 37.7, 137.1, 7, 
19.4, 39.3, 138.1, 7, 
19.3, 39.6, 137.8, 7, 
19.8, 39.2, 137.7, 7, 
20.5, 38.8, 133.7, 7, 
20.9, 38.2, 135.5, 7, 
21.1, 40.7, 135.3, 7, 
22.8, 42.5, 134.1, 7, 
22.7, 41.9, 135.9, 7, 
23.2, 43.3, 134.6, 7, 
23.8, 41.7, 132.5, 7, 
23.8, 44.8, 135.3, 7, 
29.1, 49.9, 133.3, 7, 
29.6, 49.8, 132.5, 7, 
78.8, 59.1, 101.8, 7, 
79.5, 56.3, 104.2, 7, 
79.3, 56.8, 105.0, 7, 
81.2, 60.3, 102.3, 7, 
81.6, 42.9, 105.8, 7, 
82.1, 38.4, 105.5, 7, 
83.9, 38.8, 108.0, 7, 
84.6, 31.1, 108.2, 7, 
84.7, 37.7, 108.1, 7, 
85.3, 31.7, 104.6, 7, 
85.3, 48.0, 103.6, 7, 
85.3, 46.6, 103.6, 7, 
85.6, 41.3, 102.7, 7, 
85.9, 28.0, 107.8, 7, 
85.9, 30.6, 106.1, 7, 
86.2, 36.6, 105.2, 7, 
86.7, 33.1, 104.6, 7, 
86.7, 25.9, 108.0, 7, 
86.3, 36.1, 107.1, 7, 
87.2, 27.4, 105.4, 7, 
86.9, 49.3, 104.1, 7, 
87.2, 50.4, 102.1, 7, 
86.7, 31.1, 111.9, 7, 
87.5, 30.9, 108.3, 7, 
87.5, 29.9, 108.4, 7, 
87.3, 42.0, 106.1, 7, 
87.1, 41.0, 107.3, 7, 
87.7, 32.5, 108.8, 7, 
87.7, 37.0, 107.1, 7, 
87.8, 44.4, 104.3, 7, 
87.8, 53.9, 104.3, 7, 
88.2, 29.9, 108.4, 7, 
88.2, 30.9, 108.3, 7, 
88.3, 56.3, 102.9, 7, 
88.5, 48.8, 103.2, 7, 
88.8, 20.7, 110.6, 7, 
88.6, 25.8, 109.7, 7, 
88.9, 40.4, 105.1, 7, 
89.1, 44.9, 102.8, 7, 
89.2, 45.3, 104.4, 7, 
89.7, 12.0, 116.3, 7, 
89.7, 20.7, 113.7, 7, 
89.6, 34.3, 106.7, 7, 
89.6, 33.3, 106.7, 7, 
90.0, 50.1, 102.3, 7, 
89.7, 50.0, 104.2, 7, 
90.3, 33.3, 106.8, 7, 
90.8, 28.8, 104.0, 7, 
90.9, 10.9, 115.1, 7, 
90.8, 16.5, 110.1, 7, 
90.2, 61.0, 103.6, 7, 
90.6, 48.6, 103.3, 7, 
90.5, 36.8, 107.2, 7, 
90.9, 29.2, 106.3, 7, 
91.1, 52.9, 101.9, 7, 
91.1, 56.0, 103.1, 7, 
91.6, 38.8, 103.5, 7, 
91.3, 58.3, 103.4, 7, 
92.1, 28.2, 105.5, 7, 
91.8, 32.7, 106.8, 7, 
92.6, 7.2, 112.5, 7, 
91.9, 48.9, 104.3, 7, 
92.5, 68.9, 100.1, 7, 
92.7, 56.2, 100.2, 7, 
92.2, 47.9, 104.9, 7, 
92.2, 50.3, 103.8, 7, 
92.5, 51.8, 101.9, 7, 
91.8, 51.2, 106.5, 7, 
92.7, 71.6, 100.4, 7, 
93.1, 32.1, 104.8, 7, 
93.0, 70.0, 100.8, 7, 
92.9, 72.4, 100.7, 7, 
93.0, 62.7, 101.7, 7, 
93.2, 58.8, 101.1, 7, 
92.9, 51.2, 103.8, 7, 
93.3, 54.2, 101.1, 7, 
93.4, 61.4, 101.4, 7, 
93.1, 53.5, 104.2, 7, 
93.1, 54.0, 104.1, 7, 
93.3, 35.6, 107.3, 7, 
93.6, 63.6, 101.8, 7, 
93.6, 52.1, 103.8, 7, 
93.5, 47.8, 104.9, 7, 
94.1, 39.6, 103.0, 7, 
93.9, 41.0, 104.1, 7, 
93.9, 50.2, 104.3, 7, 
94.4, 43.0, 102.5, 7, 
94.1, 37.5, 106.0, 7, 
94.4, 46.3, 104.0, 7, 
94.4, 47.3, 104.0, 7, 
94.7, 46.9, 102.1, 7, 
94.2, 48.7, 104.9, 7, 
94.2, 34.0, 109.4, 7, 
94.5, 65.2, 102.1, 7, 
94.5, 61.2, 103.0, 7, 
94.8, 49.2, 103.5, 7, 
95.0, 37.0, 104.8, 7, 
94.8, 58.5, 103.6, 7, 
95.0, 52.0, 103.9, 7, 
95.0, 51.0, 103.9, 7, 
94.9, 48.6, 104.9, 7, 
95.0, 40.4, 106.4, 7, 
95.0, 54.3, 105.1, 7, 
95.1, 50.0, 105.3, 7, 
95.4, 44.8, 104.6, 7, 
95.4, 41.8, 105.8, 7, 
95.4, 62.0, 103.4, 7, 
95.2, 58.4, 105.2, 7, 
95.7, 40.3, 106.5, 7, 
95.6, 60.6, 104.7, 7, 
95.9, 37.8, 108.4, 7, 
95.9, 58.3, 105.2, 7, 
96.2, 46.1, 106.1, 7, 
96.2, 46.6, 106.1, 7, 
96.5, 51.3, 105.3, 7, 
96.5, 50.4, 105.4, 7, 
96.3, 48.5, 107.4, 7, 
97.1, 34.3, 108.2, 7, 
96.8, 60.1, 105.5, 7, 
97.0, 42.6, 109.0, 7, 
97.3, 37.7, 108.5, 7, 
97.3, 48.9, 109.2, 7, 
97.6, 48.4, 107.4, 7, 
97.5, 44.1, 109.9, 7, 
97.8, 35.3, 111.2, 7, 
97.9, 39.2, 111.1, 7, 
0.3, 4.9, 293.4, 6, 
0.3, 4.5, 293.7, 6, 
0.9, 2.1, 330.5, 6, 
1.0, 3.2, 290.2, 6, 
1.3, 2.0, 298.0, 6, 
1.6, 1.6, 100.4, 6, 
1.6, 1.7, 199.4, 6, 
2.0, 2.0, 118.0, 6, 
2.4, 3.7, 123.0, 6, 
2.5, 4.4, 132.5, 6, 
3.0, 4.8, 160.8, 6, 
4.2, 8.7, 138.5, 6, 
4.6, 9.6, 134.9, 6, 
6.4, 12.0, 142.3, 6, 
7.2, 13.6, 143.5, 6, 
8.1, 17.8, 148.1, 6, 
9.2, 20.9, 139.9, 6, 
9.8, 20.1, 140.8, 6, 
10.1, 21.4, 142.0, 6, 
11.6, 23.1, 139.0, 6, 
11.5, 24.6, 137.2, 6, 
11.4, 23.6, 142.0, 6, 
11.4, 23.2, 142.5, 6, 
12.3, 26.2, 136.9, 6, 
12.2, 27.0, 139.3, 6, 
12.3, 24.8, 141.9, 6, 
12.7, 26.9, 136.7, 6, 
13.7, 26.8, 136.3, 6, 
13.5, 27.6, 140.0, 6, 
14.0, 28.6, 136.6, 6, 
14.6, 27.8, 134.9, 6, 
14.2, 29.1, 142.2, 6, 
14.8, 30.0, 137.5, 6, 
15.7, 30.2, 137.0, 6, 
15.7, 31.0, 135.0, 6, 
15.8, 29.5, 135.0, 6, 
16.1, 31.3, 136.5, 6, 
15.8, 33.8, 138.7, 6, 
16.6, 31.2, 134.6, 6, 
17.0, 33.0, 133.5, 6, 
16.9, 32.2, 135.5, 6, 
16.9, 32.9, 136.0, 6, 
16.7, 34.0, 137.1, 6, 
17.7, 31.8, 130.9, 6, 
17.4, 31.8, 136.4, 6, 
17.0, 34.2, 139.4, 6, 
17.9, 33.6, 132.9, 6, 
17.7, 34.6, 134.3, 6, 
17.8, 33.2, 134.5, 6, 
17.5, 34.5, 138.5, 6, 
18.0, 33.7, 137.7, 6, 
18.2, 34.9, 133.5, 6, 
18.2, 34.6, 133.8, 6, 
17.7, 37.2, 138.3, 6, 
18.5, 34.4, 136.6, 6, 
18.4, 35.4, 137.5, 6, 
18.9, 36.5, 135.2, 6, 
18.6, 37.6, 138.5, 6, 
19.1, 38.0, 136.0, 6, 
19.9, 36.0, 133.5, 6, 
19.6, 37.9, 135.6, 6, 
19.4, 39.5, 137.5, 6, 
20.0, 38.9, 135.2, 6, 
20.6, 37.6, 133.2, 6, 
20.6, 37.9, 134.0, 6, 
20.2, 40.3, 136.7, 6, 
20.3, 39.2, 137.6, 6, 
20.6, 40.9, 136.6, 6, 
20.6, 41.1, 137.1, 6, 
21.3, 39.4, 133.6, 6, 
21.4, 38.0, 134.9, 6, 
21.8, 40.1, 132.7, 6, 
21.7, 39.6, 134.8, 6, 
21.6, 40.2, 135.1, 6, 
21.6, 41.2, 135.0, 6, 
22.4, 41.7, 134.7, 6, 
22.2, 42.7, 136.5, 6, 
23.0, 44.1, 136.0, 6, 
24.0, 43.5, 134.9, 6, 
25.3, 45.0, 133.0, 6, 
27.1, 47.4, 134.6, 6, 
27.6, 47.8, 132.8, 6, 
28.2, 49.4, 134.7, 6, 
28.7, 48.8, 134.0, 6, 
29.2, 49.5, 132.7, 6, 
29.5, 50.2, 133.2, 6, 
78.0, 56.9, 102.3, 6, 
79.0, 59.5, 102.6, 6, 
79.3, 38.1, 107.9, 6, 
79.7, 31.5, 107.3, 6, 
80.0, 40.1, 104.8, 6, 
79.5, 59.0, 103.6, 6, 
80.2, 28.4, 106.8, 6, 
79.8, 60.7, 103.9, 6, 
79.9, 57.2, 104.1, 6, 
80.8, 30.9, 110.4, 6, 
81.1, 59.0, 102.8, 6, 
81.5, 33.9, 106.5, 6, 
82.1, 43.1, 101.9, 6, 
81.1, 67.1, 103.5, 6, 
81.6, 32.9, 108.6, 6, 
81.9, 28.3, 107.7, 6, 
82.1, 48.3, 103.4, 6, 
81.9, 64.4, 101.8, 6, 
82.2, 54.4, 103.6, 6, 
82.0, 62.7, 103.0, 6, 
82.5, 32.3, 107.3, 6, 
82.5, 68.4, 101.6, 6, 
82.6, 65.2, 101.8, 6, 
83.3, 23.0, 107.2, 6, 
83.0, 43.8, 105.2, 6, 
83.2, 33.3, 107.2, 6, 
83.2, 36.8, 108.8, 6, 
83.6, 34.8, 106.5, 6, 
83.6, 37.8, 108.1, 6, 
84.1, 51.9, 103.3, 6, 
84.2, 41.7, 104.9, 6, 
85.0, 39.7, 105.0, 6, 
84.9, 34.2, 107.9, 6, 
85.2, 43.6, 105.3, 6, 
84.9, 43.1, 107.5, 6, 
85.2, 32.6, 108.8, 6, 
85.7, 27.5, 110.3, 6, 
86.1, 24.9, 107.2, 6, 
85.2, 41.6, 108.3, 6, 
85.7, 39.6, 105.0, 6, 
85.7, 31.1, 108.2, 6, 
86.1, 49.0, 103.1, 6, 
86.0, 49.9, 103.0, 6, 
86.0, 38.6, 105.7, 6, 
86.1, 31.0, 107.5, 6, 
86.6, 29.5, 106.9, 6, 
86.1, 26.6, 113.8, 6, 
86.7, 28.0, 107.0, 6, 
87.0, 23.4, 105.3, 6, 
86.6, 16.8, 115.2, 6, 
86.7, 21.8, 109.3, 6, 
86.0, 34.1, 110.6, 6, 
86.1, 39.1, 107.4, 6, 
86.5, 33.0, 106.7, 6, 
87.4, 32.7, 101.8, 6, 
87.4, 33.7, 101.9, 6, 
86.9, 25.4, 109.8, 6, 
87.1, 26.4, 106.3, 6, 
86.3, 29.7, 113.7, 6, 
86.9, 44.1, 103.2, 6, 
86.6, 43.5, 105.4, 6, 
86.8, 32.0, 107.5, 6, 
86.0, 37.7, 111.8, 6, 
86.8, 52.1, 104.4, 6, 
87.1, 53.6, 102.5, 6, 
87.3, 35.5, 105.2, 6, 
87.2, 42.0, 103.9, 6, 
87.5, 20.7, 109.5, 6, 
88.1, 3.8, 126.4, 6, 
87.4, 38.5, 105.7, 6, 
87.3, 23.9, 113.7, 6, 
88.0, 21.2, 106.3, 6, 
87.0, 42.5, 107.7, 6, 
87.0, 38.0, 109.4, 6, 
87.9, 29.4, 108.5, 6, 
87.6, 28.0, 111.8, 6, 
87.8, 41.5, 105.0, 6, 
88.0, 46.4, 102.7, 6, 
88.4, 23.3, 105.4, 6, 
88.2, 16.1, 112.8, 6, 
88.0, 32.4, 108.9, 6, 
87.9, 31.5, 110.4, 6, 
88.2, 38.4, 105.8, 6, 
88.2, 31.9, 107.5, 6, 
88.5, 31.4, 104.7, 6, 
88.5, 46.3, 103.8, 6, 
89.1, 22.2, 105.4, 6, 
88.2, 35.4, 109.1, 6, 
89.3, 15.5, 107.5, 6, 
89.0, 17.6, 109.9, 6, 
89.2, 10.9, 115.1, 6, 
88.9, 54.0, 102.2, 6, 
89.0, 37.9, 104.6, 6, 
89.1, 30.4, 106.2, 6, 
88.4, 38.9, 109.3, 6, 
89.0, 30.9, 107.6, 6, 
89.8, 5.7, 117.0, 6, 
89.4, 12.0, 116.3, 6, 
89.5, 8.9, 118.9, 6, 
89.2, 53.5, 102.6, 6, 
89.5, 47.3, 101.8, 6, 
89.4, 44.9, 102.8, 6, 
89.2, 46.3, 103.8, 6, 
89.4, 34.4, 105.4, 6, 
89.2, 55.2, 103.9, 6, 
89.4, 49.1, 104.2, 6, 
89.5, 32.3, 108.9, 6, 
89.3, 34.9, 111.8, 6, 
89.6, 45.7, 105.9, 6, 
89.7, 47.1, 104.8, 6, 
90.1, 22.2, 111.3, 6, 
90.2, 28.8, 107.0, 6, 
90.4, 15.0, 113.2, 6, 
89.9, 51.9, 105.0, 6, 
90.4, 30.8, 107.7, 6, 
90.3, 32.8, 107.5, 6, 
91.2, 7.3, 115.3, 6, 
90.2, 39.3, 108.7, 6, 
90.3, 39.7, 107.5, 6, 
90.7, 41.8, 104.0, 6, 
90.8, 46.2, 102.9, 6, 
91.0, 28.2, 105.5, 6, 
91.5, 22.8, 101.6, 6, 
90.7, 33.3, 106.8, 6, 
90.8, 35.3, 105.4, 6, 
91.5, 19.6, 103.0, 6, 
90.9, 44.2, 104.5, 6, 
91.1, 51.0, 102.3, 6, 
90.8, 49.9, 104.2, 6, 
90.8, 50.4, 104.2, 6, 
91.0, 47.6, 103.4, 6, 
91.2, 31.2, 106.2, 6, 
91.9, 5.7, 117.0, 6, 
91.5, 11.9, 116.3, 6, 
91.7, 63.9, 99.4, 6, 
91.5, 51.9, 101.9, 6, 
91.9, 38.4, 101.7, 6, 
91.2, 51.4, 103.7, 6, 
91.6, 41.3, 102.9, 6, 
91.0, 47.0, 105.8, 6, 
91.1, 47.0, 104.9, 6, 
91.8, 22.6, 107.4, 6, 
91.2, 34.7, 108.0, 6, 
91.4, 34.2, 106.7, 6, 
91.8, 11.5, 118.4, 6, 
92.3, 4.8, 122.9, 6, 
91.7, 76.5, 99.6, 6, 
91.2, 56.4, 104.8, 6, 
91.4, 54.1, 104.0, 6, 
91.8, 55.7, 101.4, 6, 
92.0, 54.4, 100.6, 6, 
92.2, 53.0, 99.7, 6, 
91.7, 48.5, 103.4, 6, 
91.5, 49.9, 104.3, 6, 
91.9, 37.2, 104.7, 6, 
92.4, 24.7, 102.8, 6, 
91.7, 31.7, 107.6, 6, 
91.8, 67.1, 101.5, 6, 
92.5, 58.6, 99.4, 6, 
91.9, 58.3, 102.6, 6, 
92.0, 59.3, 101.8, 6, 
92.0, 40.1, 105.2, 6, 
92.0, 53.2, 102.8, 6, 
91.8, 47.0, 104.9, 6, 
92.5, 35.8, 102.9, 6, 
92.2, 35.2, 105.4, 6, 
92.2, 34.2, 105.4, 6, 
92.1, 34.2, 106.8, 6, 
92.5, 11.5, 118.4, 6, 
92.3, 64.6, 101.3, 6, 
92.4, 61.1, 101.4, 6, 
92.4, 60.2, 101.4, 6, 
92.0, 51.7, 105.1, 6, 
92.8, 44.2, 101.4, 6, 
92.5, 30.6, 107.7, 6, 
93.2, 19.0, 104.1, 6, 
92.6, 68.8, 100.8, 6, 
92.6, 57.8, 102.7, 6, 
92.9, 57.9, 101.0, 6, 
92.9, 58.8, 101.0, 6, 
92.5, 47.9, 104.9, 6, 
92.7, 53.6, 102.8, 6, 
92.9, 51.8, 102.0, 6, 
92.9, 46.0, 103.0, 6, 
92.7, 30.6, 108.4, 6, 
93.0, 64.9, 101.3, 6, 
93.3, 59.7, 100.6, 6, 
93.2, 56.5, 101.5, 6, 
92.9, 61.8, 102.2, 6, 
93.4, 55.2, 100.7, 6, 
92.9, 55.0, 103.2, 6, 
93.1, 53.6, 102.4, 6, 
93.0, 44.0, 104.6, 6, 
93.3, 63.6, 101.7, 6, 
93.4, 58.2, 101.9, 6, 
93.4, 59.2, 101.9, 6, 
93.5, 42.5, 104.1, 6, 
93.6, 46.0, 103.0, 6, 
93.9, 34.7, 102.9, 6, 
93.3, 40.5, 106.4, 6, 
93.7, 64.5, 101.4, 6, 
93.5, 66.1, 102.0, 6, 
93.8, 61.4, 101.4, 6, 
93.8, 61.0, 101.5, 6, 
93.8, 53.6, 102.4, 6, 
93.3, 55.3, 104.9, 6, 
94.1, 47.9, 101.6, 6, 
93.7, 75.0, 101.4, 6, 
93.9, 67.8, 101.6, 6, 
93.8, 58.6, 103.5, 6, 
94.0, 63.5, 101.8, 6, 
93.8, 58.1, 103.5, 6, 
93.8, 63.9, 102.5, 6, 
94.1, 58.2, 101.9, 6, 
94.1, 60.0, 101.9, 6, 
94.1, 53.5, 102.9, 6, 
93.7, 56.2, 104.5, 6, 
94.3, 51.7, 102.0, 6, 
94.2, 42.5, 104.1, 6, 
94.1, 45.9, 104.0, 6, 
93.9, 34.0, 109.4, 6, 
94.0, 68.2, 102.7, 6, 
94.0, 60.8, 103.8, 6, 
94.3, 62.6, 102.2, 6, 
94.3, 61.3, 102.2, 6, 
93.9, 58.9, 104.7, 6, 
94.5, 60.0, 101.5, 6, 
94.2, 60.3, 103.1, 6, 
94.3, 54.9, 103.3, 6, 
94.1, 50.6, 105.3, 6, 
94.5, 53.5, 102.5, 6, 
94.4, 45.8, 104.6, 6, 
94.5, 48.3, 103.5, 6, 
94.6, 42.4, 103.6, 6, 
94.3, 48.7, 104.4, 6, 
94.7, 36.0, 104.8, 6, 
94.3, 41.9, 105.8, 6, 
94.7, 63.5, 101.8, 6, 
94.9, 42.4, 104.2, 6, 
94.6, 41.4, 106.4, 6, 
94.7, 33.5, 108.2, 6, 
94.7, 60.7, 103.8, 6, 
95.0, 43.8, 105.7, 6, 
95.1, 49.1, 103.5, 6, 
94.8, 50.5, 105.3, 6, 
95.1, 44.8, 104.6, 6, 
95.2, 37.9, 106.0, 6, 
95.0, 41.8, 105.8, 6, 
94.9, 69.3, 103.0, 6, 
95.2, 58.0, 103.6, 6, 
95.3, 51.0, 103.9, 6, 
95.4, 47.2, 104.1, 6, 
95.5, 40.8, 105.3, 6, 
95.6, 42.3, 104.2, 6, 
95.3, 41.3, 106.4, 6, 
95.6, 32.9, 106.9, 6, 
95.4, 60.7, 103.9, 6, 
95.5, 54.7, 104.2, 6, 
95.6, 50.0, 104.4, 6, 
95.4, 49.0, 106.3, 6, 
96.1, 38.4, 103.7, 6, 
95.8, 37.9, 106.0, 6, 
95.7, 56.1, 104.6, 6, 
95.4, 57.9, 106.1, 6, 
96.0, 38.3, 107.8, 6, 
95.9, 58.8, 104.8, 6, 
96.0, 56.0, 105.0, 6, 
96.0, 49.9, 106.3, 6, 
96.2, 45.1, 106.7, 6, 
96.5, 43.7, 104.7, 6, 
96.1, 41.7, 108.0, 6, 
96.2, 51.8, 106.6, 6, 
96.5, 46.5, 106.1, 6, 
96.1, 51.3, 107.5, 6, 
96.7, 35.3, 108.1, 6, 
96.6, 54.6, 106.0, 6, 
96.3, 49.0, 109.2, 6, 
96.6, 49.4, 107.3, 6, 
96.8, 52.2, 107.5, 6, 
97.0, 45.5, 108.2, 6, 
97.3, 40.2, 107.6, 6, 
97.6, 40.7, 105.4, 6, 
97.4, 35.3, 108.1, 6, 
97.3, 48.4, 107.4, 6, 
97.3, 49.3, 107.3, 6, 
97.3, 43.6, 108.9, 6, 
97.6, 44.0, 106.8, 6, 
97.1, 44.1, 109.8, 6, 
97.5, 52.2, 107.5, 6, 
97.9, 32.3, 111.1, 6, 
98.0, 29.3, 111.6, 6, 
98.1, 48.3, 106.5, 6, 
97.7, 42.7, 111.1, 6, 
98.2, 46.4, 106.6, 6, 
98.2, 42.1, 108.0, 6, 
98.0, 42.6, 109.0, 6, 
98.4, 39.6, 107.2, 6, 
98.1, 39.6, 109.4, 6, 
98.5, 37.2, 107.3, 6, 
98.1, 35.3, 111.2, 6, 
98.4, 31.8, 110.5, 6, 
0.6, 3.3, 332.3, 6, 
0.4, 3.4, 309.1, 6, 
0.4, 3.0, 311.5, 6, 
0.5, 3.3, 320.5, 6, 
0.5, 3.0, 324.4, 6, 
0.6, 3.0, 306.5, 6, 
0.4, 3.6, 285.8, 6, 
0.4, 2.8, 284.6, 6, 
0.8, 3.4, 324.4, 6, 
0.7, 4.1, 290.2, 6, 
0.9, 4.6, 297.1, 6, 
0.8, 2.9, 273.7, 6, 
1.0, 1.6, 110.2, 6, 
1.5, 2.0, 298.0, 6, 
1.8, 2.0, 118.0, 6, 
1.7, 2.3, 189.1, 6, 
2.0, 2.1, 125.5, 6, 
1.9, 2.5, 190.3, 6, 
2.1, 3.2, 169.4, 6, 
2.0, 3.7, 158.6, 6, 
2.6, 3.2, 136.2, 6, 
2.7, 5.2, 129.2, 6, 
3.2, 4.5, 150.2, 6, 
3.2, 6.2, 155.0, 6, 
4.0, 8.3, 134.9, 6, 
4.0, 7.9, 154.3, 6, 
4.0, 8.5, 150.6, 6, 
4.9, 11.2, 147.9, 6, 
5.5, 10.4, 146.9, 6, 
6.0, 11.3, 143.3, 6, 
5.9, 14.5, 145.3, 6, 
7.2, 16.2, 148.5, 6, 
7.1, 17.4, 145.2, 6, 
7.5, 18.2, 145.9, 6, 
8.3, 18.0, 142.3, 6, 
8.6, 18.4, 147.9, 6, 
9.3, 22.4, 145.4, 6, 
10.3, 21.2, 137.5, 6, 
10.2, 23.7, 146.1, 6, 
10.4, 22.2, 144.9, 6, 
11.1, 21.8, 140.8, 6, 
11.0, 23.7, 140.1, 6, 
10.7, 24.2, 146.3, 6, 
10.8, 23.5, 145.8, 6, 
11.5, 24.8, 137.9, 6, 
11.1, 25.8, 145.0, 6, 
11.8, 24.6, 142.3, 6, 
12.2, 26.0, 139.5, 6, 
12.7, 24.9, 141.4, 6, 
12.9, 26.2, 134.7, 6, 
13.6, 25.9, 139.7, 6, 
13.2, 29.6, 143.2, 6, 
13.8, 28.6, 141.6, 6, 
13.6, 31.0, 142.0, 6, 
14.4, 29.9, 136.5, 6, 
14.8, 28.7, 139.5, 6, 
15.3, 30.1, 134.6, 6, 
15.1, 31.2, 137.4, 6, 
15.8, 29.3, 136.0, 6, 
15.4, 32.6, 137.7, 6, 
16.0, 31.1, 137.3, 6, 
16.2, 30.4, 135.5, 6, 
15.8, 32.5, 140.5, 6, 
15.7, 32.6, 141.7, 6, 
16.3, 33.5, 136.6, 6, 
16.5, 31.4, 136.3, 6, 
17.1, 34.0, 139.0, 6, 
17.7, 33.3, 136.0, 6, 
17.5, 34.3, 139.2, 6, 
18.3, 32.6, 135.0, 6, 
18.3, 33.7, 132.7, 6, 
18.1, 34.7, 135.3, 6, 
18.0, 34.9, 137.0, 6, 
17.9, 35.9, 138.0, 6, 
17.8, 35.9, 138.9, 6, 
18.5, 35.7, 133.8, 6, 
18.5, 36.0, 134.6, 6, 
18.3, 36.6, 136.8, 6, 
19.2, 33.8, 132.4, 6, 
18.9, 35.2, 136.8, 6, 
18.9, 36.0, 134.1, 6, 
18.8, 35.5, 137.4, 6, 
18.8, 35.9, 136.1, 6, 
18.9, 35.2, 135.8, 6, 
18.7, 36.8, 137.0, 6, 
19.3, 36.9, 134.8, 6, 
20.6, 37.0, 135.2, 6, 
20.2, 40.0, 138.1, 6, 
20.7, 39.4, 136.7, 6, 
21.6, 38.3, 131.0, 6, 
21.3, 40.0, 133.7, 6, 
21.4, 41.0, 137.5, 6, 
22.1, 40.3, 135.1, 6, 
22.1, 40.4, 134.2, 6, 
22.8, 42.0, 135.2, 6, 
22.6, 42.8, 136.5, 6, 
23.4, 41.9, 131.9, 6, 
25.1, 45.9, 134.5, 6, 
26.9, 46.7, 132.4, 6, 
26.7, 47.7, 134.2, 6, 
27.2, 47.5, 133.0, 6, 
27.4, 48.7, 134.2, 6, 
28.0, 48.2, 132.7, 6, 
31.3, 52.9, 134.0, 6, 
79.0, 37.2, 104.9, 6, 
79.1, 55.0, 104.7, 6, 
79.8, 30.0, 106.7, 6, 
80.2, 56.5, 100.7, 6, 
80.0, 32.5, 107.2, 6, 
80.3, 64.1, 100.9, 6, 
80.5, 29.4, 106.7, 6, 
80.8, 59.4, 102.8, 6, 
81.2, 22.6, 111.1, 6, 
81.6, 31.9, 105.9, 6, 
81.4, 47.3, 105.4, 6, 
82.3, 45.4, 103.0, 6, 
82.1, 46.8, 104.0, 6, 
81.6, 59.7, 104.0, 6, 
82.1, 33.4, 107.2, 6, 
81.9, 65.6, 103.2, 6, 
82.6, 22.6, 111.2, 6, 
83.0, 29.3, 103.7, 6, 
83.2, 48.2, 103.5, 6, 
83.0, 42.3, 105.9, 6, 
83.0, 66.8, 102.9, 6, 
83.4, 69.8, 102.3, 6, 
84.5, 23.5, 105.3, 6, 
84.3, 40.4, 102.6, 6, 
84.0, 43.3, 103.7, 6, 
84.1, 29.7, 106.8, 6, 
84.5, 51.9, 103.4, 6, 
84.6, 27.6, 110.2, 6, 
84.3, 40.2, 107.3, 6, 
84.7, 33.7, 106.6, 6, 
84.8, 36.7, 105.1, 6, 
84.5, 29.6, 109.9, 6, 
84.8, 38.2, 106.9, 6, 
84.9, 39.7, 105.6, 6, 
85.0, 32.1, 107.4, 6, 
85.2, 52.8, 103.4, 6, 
85.6, 28.0, 107.0, 6, 
86.0, 16.2, 107.5, 6, 
85.4, 34.6, 106.5, 6, 
85.4, 33.6, 106.6, 6, 
85.6, 26.5, 111.3, 6, 
85.8, 25.5, 109.8, 6, 
85.8, 45.1, 103.2, 6, 
85.4, 31.6, 110.3, 6, 
86.0, 48.0, 103.6, 6, 
85.9, 51.8, 103.4, 6, 
86.3, 29.0, 106.9, 6, 
86.3, 22.9, 109.2, 6, 
86.5, 37.2, 102.7, 6, 
86.1, 33.6, 106.6, 6, 
86.8, 52.0, 100.2, 6, 
86.7, 32.6, 104.6, 6, 
86.7, 29.5, 106.1, 6, 
86.9, 32.1, 103.2, 6, 
86.2, 30.6, 110.5, 6, 
86.2, 38.1, 106.9, 6, 
86.9, 31.1, 103.2, 6, 
87.2, 33.1, 103.9, 6, 
87.0, 27.9, 107.0, 6, 
86.8, 24.4, 110.8, 6, 
86.7, 27.5, 110.3, 6, 
86.9, 41.6, 103.8, 6, 
87.0, 22.8, 109.2, 6, 
86.7, 46.5, 103.7, 6, 
87.8, 16.7, 102.3, 6, 
86.4, 33.1, 110.8, 6, 
86.8, 34.5, 106.6, 6, 
86.4, 35.6, 109.1, 6, 
87.3, 27.9, 107.8, 6, 
87.3, 38.1, 104.5, 6, 
87.3, 19.3, 113.1, 6, 
87.5, 25.4, 106.3, 6, 
87.0, 38.0, 107.0, 6, 
87.1, 33.0, 107.4, 6, 
87.0, 64.2, 102.9, 6, 
87.5, 34.5, 106.6, 6, 
87.5, 29.4, 108.5, 6, 
87.4, 27.4, 110.3, 6, 
87.3, 41.0, 106.1, 6, 
87.4, 41.5, 105.0, 6, 
87.7, 27.9, 107.0, 6, 
87.9, 27.4, 105.4, 6, 
87.3, 35.0, 107.9, 6, 
88.3, 16.1, 104.8, 6, 
87.8, 64.8, 101.0, 6, 
87.8, 38.5, 105.7, 6, 
87.9, 25.3, 109.8, 6, 
87.8, 45.4, 104.3, 6, 
88.0, 26.9, 107.9, 6, 
87.4, 38.0, 109.4, 6, 
88.7, 13.0, 105.8, 6, 
88.5, 10.9, 113.2, 6, 
88.7, 7.3, 115.3, 6, 
88.0, 34.9, 107.9, 6, 
88.2, 34.4, 106.6, 6, 
87.8, 47.3, 105.7, 6, 
88.5, 20.7, 109.5, 6, 
88.8, 23.3, 105.4, 6, 
88.3, 32.9, 106.7, 6, 
88.0, 50.6, 105.9, 6, 
88.7, 37.4, 104.6, 6, 
88.5, 37.9, 105.8, 6, 
88.4, 36.9, 107.1, 6, 
88.3, 44.3, 105.4, 6, 
88.6, 25.3, 109.8, 6, 
88.9, 26.3, 106.3, 6, 
88.9, 32.4, 104.7, 6, 
88.4, 32.4, 108.9, 6, 
89.7, 0.9, 0.0, 6, 
89.0, 41.4, 103.9, 6, 
89.0, 41.9, 103.9, 6, 
89.0, 35.4, 105.3, 6, 
88.6, 39.9, 107.4, 6, 
89.2, 34.9, 104.0, 6, 
88.6, 38.9, 107.5, 6, 
88.5, 47.2, 105.7, 6, 
89.3, 23.7, 107.3, 6, 
88.3, 36.0, 111.6, 6, 
90.0, 3.1, 116.5, 6, 
89.6, 8.9, 116.6, 6, 
89.4, 14.0, 113.6, 6, 
89.1, 55.3, 103.0, 6, 
89.6, 42.4, 102.3, 6, 
89.2, 48.7, 103.2, 6, 
89.8, 21.2, 106.4, 6, 
89.8, 18.6, 108.6, 6, 
89.4, 52.4, 103.6, 6, 
89.2, 52.9, 104.5, 6, 
89.3, 38.8, 107.5, 6, 
89.4, 35.8, 107.8, 6, 
89.7, 42.8, 103.9, 6, 
89.6, 39.3, 105.2, 6, 
89.5, 33.8, 108.0, 6, 
90.1, 28.3, 103.9, 6, 
89.3, 34.4, 109.3, 6, 
90.3, 8.9, 116.6, 6, 
90.1, 10.5, 119.4, 6, 
89.6, 54.3, 104.0, 6, 
90.1, 37.3, 104.7, 6, 
90.2, 38.9, 103.4, 6, 
90.2, 37.9, 103.4, 6, 
89.9, 48.6, 103.3, 6, 
89.9, 45.2, 104.4, 6, 
90.8, 18.1, 103.9, 6, 
91.0, 2.7, 125.4, 6, 
90.2, 47.6, 103.8, 6, 
89.9, 33.8, 110.7, 6, 
91.2, 4.8, 122.9, 6, 
90.9, 75.5, 98.9, 6, 
90.3, 59.7, 102.9, 6, 
89.9, 59.7, 105.3, 6, 
90.8, 55.8, 101.4, 6, 
90.1, 62.3, 103.5, 6, 
91.0, 51.6, 100.5, 6, 
91.3, 26.8, 103.0, 6, 
90.4, 31.3, 110.5, 6, 
90.5, 57.4, 104.2, 6, 
90.6, 53.7, 104.5, 6, 
90.9, 53.8, 102.7, 6, 
91.0, 46.1, 103.9, 6, 
91.4, 28.2, 105.5, 6, 
91.4, 27.2, 105.5, 6, 
91.1, 35.2, 105.4, 6, 
90.7, 35.3, 109.2, 6, 
91.1, 49.9, 104.2, 6, 
91.2, 46.1, 104.4, 6, 
91.6, 29.2, 106.3, 6, 
91.4, 31.7, 107.6, 6, 
91.7, 31.2, 104.8, 6, 
92.2, 6.7, 115.8, 6, 
91.9, 63.4, 100.1, 6, 
91.7, 58.4, 101.8, 6, 
92.0, 47.1, 101.9, 6, 
91.3, 52.7, 104.6, 6, 
91.8, 42.6, 104.0, 6, 
91.7, 34.2, 106.8, 6, 
92.2, 10.5, 119.4, 6, 
92.7, 3.8, 126.4, 6, 
92.0, 70.0, 100.4, 6, 
92.3, 62.1, 99.8, 6, 
92.3, 64.7, 99.8, 6, 
92.1, 57.5, 101.4, 6, 
91.9, 55.1, 103.2, 6, 
92.2, 43.6, 103.5, 6, 
92.7, 8.9, 118.9, 6, 
92.4, 62.4, 101.0, 6, 
92.4, 61.5, 101.0, 6, 
92.0, 59.6, 103.4, 6, 
92.3, 47.4, 103.9, 6, 
92.7, 47.1, 102.0, 6, 
93.1, 9.8, 115.8, 6, 
92.2, 56.3, 104.8, 6, 
92.9, 59.8, 100.6, 6, 
92.5, 50.3, 104.3, 6, 
92.4, 54.0, 104.1, 6, 
93.0, 29.1, 106.3, 6, 
92.9, 73.1, 100.7, 6, 
93.2, 41.6, 104.1, 6, 
93.0, 46.4, 104.0, 6, 
93.4, 39.6, 103.0, 6, 
93.5, 28.1, 105.6, 6, 
93.1, 59.5, 103.0, 6, 
93.4, 60.1, 101.5, 6, 
93.2, 61.4, 102.2, 6, 
93.1, 50.2, 105.2, 6, 
93.4, 53.6, 102.4, 6, 
93.2, 48.8, 104.4, 6, 
93.1, 54.9, 104.1, 6, 
93.4, 48.3, 103.4, 6, 
93.8, 31.1, 104.8, 6, 
92.9, 35.6, 111.1, 6, 
93.7, 70.0, 100.9, 6, 
93.9, 58.7, 101.1, 6, 
93.7, 53.5, 102.9, 6, 
94.0, 47.0, 102.0, 6, 
94.1, 46.0, 102.0, 6, 
93.7, 47.3, 104.0, 6, 
93.5, 48.7, 104.9, 6, 
94.0, 34.0, 105.5, 6, 
93.8, 40.0, 105.3, 6, 
93.9, 32.5, 106.9, 6, 
93.8, 33.0, 106.9, 6, 
93.9, 65.3, 102.1, 6, 
94.2, 57.3, 101.5, 6, 
94.1, 54.5, 102.4, 6, 
93.9, 54.9, 103.3, 6, 
94.2, 44.4, 103.6, 6, 
94.5, 41.1, 102.5, 6, 
94.5, 31.0, 104.9, 6, 
94.4, 25.5, 108.2, 6, 
94.4, 58.2, 101.9, 6, 
94.6, 41.4, 104.2, 6, 
94.5, 66.9, 102.1, 6, 
94.4, 66.5, 102.8, 6, 
94.6, 48.7, 104.4, 6, 
94.6, 49.6, 104.4, 6, 
95.1, 39.5, 103.6, 6, 
94.7, 62.9, 103.3, 6, 
95.0, 56.7, 102.8, 6, 
94.4, 51.5, 107.5, 6, 
94.8, 58.0, 103.6, 6, 
95.1, 53.0, 102.9, 6, 
95.1, 53.4, 102.9, 6, 
95.1, 47.2, 104.0, 6, 
95.0, 50.1, 103.9, 6, 
95.0, 41.3, 106.4, 6, 
95.2, 59.4, 103.2, 6, 
95.0, 60.7, 103.9, 6, 
94.9, 54.7, 105.9, 6, 
95.2, 53.3, 104.3, 6, 
95.2, 53.8, 104.2, 6, 
95.3, 48.6, 104.5, 6, 
95.3, 49.6, 104.4, 6, 
95.7, 36.9, 104.9, 6, 
95.2, 43.3, 106.8, 6, 
95.4, 35.4, 107.4, 6, 
95.2, 63.3, 104.1, 6, 
95.1, 62.4, 104.9, 6, 
95.4, 56.1, 104.5, 6, 
95.3, 46.6, 107.0, 6, 
96.0, 41.3, 104.2, 6, 
96.2, 34.4, 104.3, 6, 
95.4, 61.1, 105.4, 6, 
95.7, 60.6, 103.9, 6, 
95.9, 54.7, 104.2, 6, 
95.7, 54.2, 105.1, 6, 
96.0, 50.0, 104.4, 6, 
95.8, 45.2, 106.7, 6, 
95.7, 48.0, 106.4, 6, 
96.2, 43.7, 104.7, 6, 
96.0, 43.7, 105.7, 6, 
96.2, 37.8, 106.1, 6, 
95.8, 42.2, 107.9, 6, 
96.0, 46.6, 107.0, 6, 
96.4, 41.2, 106.4, 6, 
96.3, 41.7, 106.4, 6, 
96.4, 40.3, 106.5, 6, 
96.2, 40.3, 107.6, 6, 
96.2, 60.6, 104.7, 6, 
96.4, 54.1, 105.1, 6, 
96.4, 49.9, 106.3, 6, 
96.5, 45.1, 106.7, 6, 
96.6, 50.8, 106.7, 6, 
96.4, 51.3, 107.5, 6, 
96.6, 51.8, 106.6, 6, 
97.0, 47.5, 105.1, 6, 
96.6, 45.6, 108.1, 6, 
97.0, 38.2, 107.8, 6, 
96.8, 47.0, 108.5, 6, 
97.6, 37.7, 106.1, 6, 
96.8, 52.7, 109.1, 6, 
97.0, 49.8, 108.6, 6, 
97.3, 41.2, 109.7, 6, 
97.8, 34.2, 108.2, 6, 
97.7, 49.8, 106.4, 6, 
97.5, 43.1, 110.0, 6, 
98.0, 37.7, 108.5, 6, 
97.7, 36.3, 111.1, 6, 
97.7, 37.3, 110.9, 6, 
97.8, 38.2, 109.6, 6, 
97.9, 32.3, 111.8, 6, 
98.1, 32.7, 109.0, 6, 
97.6, 47.9, 109.8, 6, 
97.8, 48.4, 108.8, 6, 
97.8, 46.0, 109.1, 6, 
98.0, 40.2, 109.9, 6, 
97.9, 42.6, 109.5, 6, 
98.4, 33.7, 109.6, 6, 

